# Blender v2.69 (sub 0) OBJ File: ''
# www.blender.org
mtllib monkey_tex.mtl
o Suzanne
v 0.437500 0.164062 0.765625
v -0.437500 0.164062 0.765625
v 0.500000 0.093750 0.687500
v -0.500000 0.093750 0.687500
v 0.546875 0.054687 0.578125
v -0.546875 0.054687 0.578125
v 0.351562 -0.023438 0.617188
v -0.351562 -0.023438 0.617188
v 0.351562 0.056614 0.718750
v -0.351562 0.056614 0.718750
v 0.351562 0.132812 0.781250
v -0.351562 0.132812 0.781250
v 0.273438 0.164062 0.796875
v -0.273438 0.164062 0.796875
v 0.203125 0.093750 0.742188
v -0.203125 0.093750 0.742188
v 0.156250 0.054687 0.648438
v -0.156250 0.054687 0.648438
v 0.078125 0.242187 0.656250
v -0.078125 0.242187 0.656250
v 0.140625 0.242187 0.742188
v -0.140625 0.242187 0.742188
v 0.242188 0.242187 0.796875
v -0.242188 0.242187 0.796875
v 0.273438 0.328125 0.796875
v -0.273438 0.328125 0.796875
v 0.203125 0.390625 0.742188
v -0.203125 0.390625 0.742188
v 0.156250 0.437500 0.648438
v -0.156250 0.437500 0.648438
v 0.351562 0.515625 0.617188
v -0.351562 0.515625 0.617188
v 0.351562 0.453125 0.718750
v -0.351562 0.453125 0.718750
v 0.351562 0.359375 0.781250
v -0.351562 0.359375 0.781250
v 0.437500 0.328125 0.765625
v -0.437500 0.328125 0.765625
v 0.500000 0.390625 0.687500
v -0.500000 0.390625 0.687500
v 0.546875 0.437500 0.578125
v -0.546875 0.437500 0.578125
v 0.625000 0.242187 0.562500
v -0.625000 0.242187 0.562500
v 0.562500 0.242187 0.671875
v -0.562500 0.242187 0.671875
v 0.468750 0.242187 0.757812
v -0.468750 0.242187 0.757812
v 0.476562 0.242187 0.773438
v -0.476562 0.242187 0.773438
v 0.445312 0.335937 0.781250
v -0.445312 0.335937 0.781250
v 0.351562 0.375000 0.804688
v -0.351562 0.375000 0.804688
v 0.265625 0.335937 0.820312
v -0.265625 0.335937 0.820312
v 0.226562 0.242187 0.820312
v -0.226562 0.242187 0.820312
v 0.265625 0.156250 0.820312
v -0.265625 0.156250 0.820312
v 0.351562 0.242187 0.828125
v -0.351562 0.242187 0.828125
v 0.351562 0.117187 0.804688
v -0.351562 0.117187 0.804688
v 0.445312 0.156250 0.781250
v -0.445312 0.156250 0.781250
v 0.000000 0.429687 0.742188
v 0.000000 0.351562 0.820312
v 0.000000 -0.679688 0.734375
v 0.000000 -0.320313 0.781250
v 0.000000 -0.187500 0.796875
v 0.000000 -0.773438 0.718750
v 0.000000 0.406250 0.601562
v 0.000000 0.570312 0.570312
v 0.000000 0.898438 -0.546875
v 0.000000 0.562500 -0.851562
v 0.000000 0.070313 -0.828125
v 0.000000 -0.382812 -0.351563
v 0.203125 -0.187500 0.562500
v -0.203125 -0.187500 0.562500
v 0.312500 -0.437500 0.570312
v -0.312500 -0.437500 0.570312
v 0.351562 -0.695312 0.570312
v -0.351562 -0.695312 0.570312
v 0.367188 -0.890625 0.531250
v -0.367188 -0.890625 0.531250
v 0.328125 -0.945312 0.523437
v -0.328125 -0.945312 0.523437
v 0.179688 -0.968750 0.554687
v -0.179688 -0.968750 0.554687
v 0.000000 -0.984375 0.578125
v 0.437500 -0.140625 0.531250
v -0.437500 -0.140625 0.531250
v 0.632812 -0.039063 0.539062
v -0.632812 -0.039063 0.539062
v 0.828125 0.148437 0.445312
v -0.828125 0.148437 0.445312
v 0.859375 0.429687 0.593750
v -0.859375 0.429687 0.593750
v 0.710938 0.484375 0.625000
v -0.710938 0.484375 0.625000
v 0.492188 0.601562 0.687500
v -0.492188 0.601562 0.687500
v 0.320312 0.757812 0.734375
v -0.320312 0.757812 0.734375
v 0.156250 0.718750 0.757813
v -0.156250 0.718750 0.757813
v 0.062500 0.492187 0.750000
v -0.062500 0.492187 0.750000
v 0.164062 0.414062 0.773438
v -0.164062 0.414062 0.773438
v 0.125000 0.304687 0.765625
v -0.125000 0.304687 0.765625
v 0.203125 0.093750 0.742188
v -0.203125 0.093750 0.742188
v 0.375000 0.015625 0.703125
v -0.375000 0.015625 0.703125
v 0.492188 0.062500 0.671875
v -0.492188 0.062500 0.671875
v 0.625000 0.187500 0.648438
v -0.625000 0.187500 0.648438
v 0.640625 0.296875 0.648438
v -0.640625 0.296875 0.648438
v 0.601562 0.375000 0.664062
v -0.601562 0.375000 0.664062
v 0.429688 0.437500 0.718750
v -0.429688 0.437500 0.718750
v 0.250000 0.468750 0.757812
v -0.250000 0.468750 0.757812
v 0.000000 -0.765625 0.734375
v 0.109375 -0.718750 0.734375
v -0.109375 -0.718750 0.734375
v 0.117188 -0.835938 0.710937
v -0.117188 -0.835938 0.710937
v 0.062500 -0.882813 0.695312
v -0.062500 -0.882813 0.695312
v 0.000000 -0.890625 0.687500
v 0.000000 -0.195313 0.750000
v 0.000000 -0.140625 0.742188
v 0.101562 -0.148438 0.742188
v -0.101562 -0.148438 0.742188
v 0.125000 -0.226563 0.750000
v -0.125000 -0.226563 0.750000
v 0.085938 -0.289063 0.742188
v -0.085938 -0.289063 0.742188
v 0.398438 -0.046875 0.671875
v -0.398438 -0.046875 0.671875
v 0.617188 0.054687 0.625000
v -0.617188 0.054687 0.625000
v 0.726562 0.203125 0.601562
v -0.726562 0.203125 0.601562
v 0.742188 0.375000 0.656250
v -0.742188 0.375000 0.656250
v 0.687500 0.414062 0.726562
v -0.687500 0.414062 0.726562
v 0.437500 0.546875 0.796875
v -0.437500 0.546875 0.796875
v 0.312500 0.640625 0.835938
v -0.312500 0.640625 0.835938
v 0.203125 0.617187 0.851562
v -0.203125 0.617187 0.851562
v 0.101562 0.429687 0.843750
v -0.101562 0.429687 0.843750
v 0.125000 -0.101563 0.812500
v -0.125000 -0.101563 0.812500
v 0.210938 -0.445313 0.710938
v -0.210938 -0.445313 0.710938
v 0.250000 -0.703125 0.687500
v -0.250000 -0.703125 0.687500
v 0.265625 -0.820312 0.664062
v -0.265625 -0.820312 0.664062
v 0.234375 -0.914062 0.632812
v -0.234375 -0.914062 0.632812
v 0.164062 -0.929688 0.632812
v -0.164062 -0.929688 0.632812
v 0.000000 -0.945312 0.640625
v 0.000000 0.046875 0.726562
v 0.000000 0.210937 0.765625
v 0.328125 0.476562 0.742188
v -0.328125 0.476562 0.742188
v 0.164062 0.140625 0.750000
v -0.164062 0.140625 0.750000
v 0.132812 0.210937 0.757812
v -0.132812 0.210937 0.757812
v 0.117188 -0.687500 0.734375
v -0.117188 -0.687500 0.734375
v 0.078125 -0.445313 0.750000
v -0.078125 -0.445313 0.750000
v 0.000000 -0.445313 0.750000
v 0.000000 -0.328125 0.742188
v 0.093750 -0.273438 0.781250
v -0.093750 -0.273438 0.781250
v 0.132812 -0.226563 0.796875
v -0.132812 -0.226563 0.796875
v 0.109375 -0.132813 0.781250
v -0.109375 -0.132813 0.781250
v 0.039062 -0.125000 0.781250
v -0.039062 -0.125000 0.781250
v 0.000000 -0.203125 0.828125
v 0.046875 -0.148438 0.812500
v -0.046875 -0.148438 0.812500
v 0.093750 -0.156250 0.812500
v -0.093750 -0.156250 0.812500
v 0.109375 -0.226563 0.828125
v -0.109375 -0.226563 0.828125
v 0.078125 -0.250000 0.804688
v -0.078125 -0.250000 0.804688
v 0.000000 -0.289063 0.804688
v 0.257812 -0.312500 0.554688
v -0.257812 -0.312500 0.554688
v 0.164062 -0.242188 0.710938
v -0.164062 -0.242188 0.710938
v 0.179688 -0.312500 0.710938
v -0.179688 -0.312500 0.710938
v 0.234375 -0.250000 0.554688
v -0.234375 -0.250000 0.554688
v 0.000000 -0.875000 0.687500
v 0.046875 -0.867188 0.687500
v -0.046875 -0.867188 0.687500
v 0.093750 -0.820313 0.710937
v -0.093750 -0.820313 0.710937
v 0.093750 -0.742188 0.726562
v -0.093750 -0.742188 0.726562
v 0.000000 -0.781250 0.656250
v 0.093750 -0.750000 0.664062
v -0.093750 -0.750000 0.664062
v 0.093750 -0.812500 0.640625
v -0.093750 -0.812500 0.640625
v 0.046875 -0.851562 0.632812
v -0.046875 -0.851562 0.632812
v 0.000000 -0.859375 0.632812
v 0.171875 0.218750 0.781250
v -0.171875 0.218750 0.781250
v 0.187500 0.156250 0.773438
v -0.187500 0.156250 0.773438
v 0.335938 0.429687 0.757812
v -0.335938 0.429687 0.757812
v 0.273438 0.421875 0.773438
v -0.273438 0.421875 0.773438
v 0.421875 0.398437 0.773438
v -0.421875 0.398437 0.773438
v 0.562500 0.351562 0.695312
v -0.562500 0.351562 0.695312
v 0.585938 0.289062 0.687500
v -0.585938 0.289062 0.687500
v 0.578125 0.195312 0.679688
v -0.578125 0.195312 0.679688
v 0.476562 0.101562 0.718750
v -0.476562 0.101562 0.718750
v 0.375000 0.062500 0.742188
v -0.375000 0.062500 0.742188
v 0.226562 0.109375 0.781250
v -0.226562 0.109375 0.781250
v 0.179688 0.296875 0.781250
v -0.179688 0.296875 0.781250
v 0.210938 0.375000 0.781250
v -0.210938 0.375000 0.781250
v 0.234375 0.359375 0.757812
v -0.234375 0.359375 0.757812
v 0.195312 0.296875 0.757812
v -0.195312 0.296875 0.757812
v 0.242188 0.125000 0.757812
v -0.242188 0.125000 0.757812
v 0.375000 0.085937 0.726562
v -0.375000 0.085937 0.726562
v 0.460938 0.117187 0.703125
v -0.460938 0.117187 0.703125
v 0.546875 0.210937 0.671875
v -0.546875 0.210937 0.671875
v 0.554688 0.281250 0.671875
v -0.554688 0.281250 0.671875
v 0.531250 0.335937 0.679688
v -0.531250 0.335937 0.679688
v 0.414062 0.390625 0.750000
v -0.414062 0.390625 0.750000
v 0.281250 0.398437 0.765625
v -0.281250 0.398437 0.765625
v 0.335938 0.406250 0.750000
v -0.335938 0.406250 0.750000
v 0.203125 0.171875 0.750000
v -0.203125 0.171875 0.750000
v 0.195312 0.226562 0.750000
v -0.195312 0.226562 0.750000
v 0.109375 0.460937 0.609375
v -0.109375 0.460937 0.609375
v 0.195312 0.664062 0.617188
v -0.195312 0.664062 0.617188
v 0.335938 0.687500 0.593750
v -0.335938 0.687500 0.593750
v 0.484375 0.554688 0.554688
v -0.484375 0.554688 0.554688
v 0.679688 0.453125 0.492188
v -0.679688 0.453125 0.492188
v 0.796875 0.406250 0.460938
v -0.796875 0.406250 0.460938
v 0.773438 0.164062 0.375000
v -0.773438 0.164062 0.375000
v 0.601562 -0.000000 0.414062
v -0.601562 -0.000000 0.414062
v 0.437500 -0.093750 0.468750
v -0.437500 -0.093750 0.468750
v 0.000000 0.898438 0.289063
v 0.000000 0.984375 -0.078125
v 0.000000 -0.195312 -0.671875
v 0.000000 -0.460938 0.187500
v 0.000000 -0.976562 0.460937
v 0.000000 -0.804688 0.343750
v 0.000000 -0.570312 0.320312
v 0.000000 -0.484375 0.281250
v 0.851562 0.234375 0.054688
v -0.851562 0.234375 0.054688
v 0.859375 0.320312 -0.046875
v -0.859375 0.320312 -0.046875
v 0.773438 0.265625 -0.437500
v -0.773438 0.265625 -0.437500
v 0.460938 0.437500 -0.703125
v -0.460938 0.437500 -0.703125
v 0.734375 -0.046875 0.070312
v -0.734375 -0.046875 0.070312
v 0.593750 -0.125000 -0.164062
v -0.593750 -0.125000 -0.164062
v 0.640625 -0.007812 -0.429688
v -0.640625 -0.007812 -0.429688
v 0.335938 0.054688 -0.664062
v -0.335938 0.054688 -0.664062
v 0.234375 -0.351563 0.406250
v -0.234375 -0.351563 0.406250
v 0.179688 -0.414062 0.257812
v -0.179688 -0.414062 0.257812
v 0.289062 -0.710938 0.382812
v -0.289062 -0.710938 0.382812
v 0.250000 -0.500000 0.390625
v -0.250000 -0.500000 0.390625
v 0.328125 -0.914062 0.398437
v -0.328125 -0.914062 0.398437
v 0.140625 -0.757812 0.367187
v -0.140625 -0.757812 0.367187
v 0.125000 -0.539062 0.359375
v -0.125000 -0.539062 0.359375
v 0.164062 -0.945312 0.437500
v -0.164062 -0.945312 0.437500
v 0.218750 -0.281250 0.429688
v -0.218750 -0.281250 0.429688
v 0.210938 -0.226563 0.468750
v -0.210938 -0.226563 0.468750
v 0.203125 -0.171875 0.500000
v -0.203125 -0.171875 0.500000
v 0.210938 -0.390625 0.164062
v -0.210938 -0.390625 0.164062
v 0.296875 -0.312500 -0.265625
v -0.296875 -0.312500 -0.265625
v 0.343750 -0.148437 -0.539062
v -0.343750 -0.148437 -0.539062
v 0.453125 0.867188 -0.382812
v -0.453125 0.867188 -0.382812
v 0.453125 0.929688 -0.070312
v -0.453125 0.929688 -0.070312
v 0.453125 0.851562 0.234375
v -0.453125 0.851562 0.234375
v 0.460938 0.523438 0.429688
v -0.460938 0.523438 0.429688
v 0.726562 0.406250 0.335938
v -0.726562 0.406250 0.335938
v 0.632812 0.453125 0.281250
v -0.632812 0.453125 0.281250
v 0.640625 0.703125 0.054688
v -0.640625 0.703125 0.054688
v 0.796875 0.562500 0.125000
v -0.796875 0.562500 0.125000
v 0.796875 0.617188 -0.117187
v -0.796875 0.617188 -0.117187
v 0.640625 0.750000 -0.195312
v -0.640625 0.750000 -0.195312
v 0.640625 0.679688 -0.445312
v -0.640625 0.679688 -0.445312
v 0.796875 0.539062 -0.359375
v -0.796875 0.539062 -0.359375
v 0.617188 0.328125 -0.585938
v -0.617188 0.328125 -0.585938
v 0.484375 0.023438 -0.546875
v -0.484375 0.023438 -0.546875
v 0.820312 0.328125 -0.203125
v -0.820312 0.328125 -0.203125
v 0.406250 -0.171875 0.148437
v -0.406250 -0.171875 0.148437
v 0.429688 -0.195312 -0.210938
v -0.429688 -0.195312 -0.210938
v 0.890625 0.406250 -0.234375
v -0.890625 0.406250 -0.234375
v 0.773438 -0.140625 -0.125000
v -0.773438 -0.140625 -0.125000
v 1.039062 -0.101562 -0.328125
v -1.039062 -0.101562 -0.328125
v 1.281250 0.054688 -0.429688
v -1.281250 0.054688 -0.429688
v 1.351562 0.320313 -0.421875
v -1.351562 0.320313 -0.421875
v 1.234375 0.507812 -0.421875
v -1.234375 0.507812 -0.421875
v 1.023438 0.476562 -0.312500
v -1.023438 0.476562 -0.312500
v 1.015625 0.414062 -0.289062
v -1.015625 0.414062 -0.289062
v 1.187500 0.437500 -0.390625
v -1.187500 0.437500 -0.390625
v 1.265625 0.289063 -0.406250
v -1.265625 0.289063 -0.406250
v 1.210938 0.078125 -0.406250
v -1.210938 0.078125 -0.406250
v 1.031250 -0.039062 -0.304688
v -1.031250 -0.039062 -0.304688
v 0.828125 -0.070312 -0.132812
v -0.828125 -0.070312 -0.132812
v 0.921875 0.359375 -0.218750
v -0.921875 0.359375 -0.218750
v 0.945312 0.304688 -0.289062
v -0.945312 0.304688 -0.289062
v 0.882812 -0.023437 -0.210938
v -0.882812 -0.023437 -0.210938
v 1.039062 0.000000 -0.367188
v -1.039062 0.000000 -0.367188
v 1.187500 0.093750 -0.445312
v -1.187500 0.093750 -0.445312
v 1.234375 0.250000 -0.445312
v -1.234375 0.250000 -0.445312
v 1.171875 0.359375 -0.437500
v -1.171875 0.359375 -0.437500
v 1.023438 0.343750 -0.359375
v -1.023438 0.343750 -0.359375
v 0.843750 0.289062 -0.210937
v -0.843750 0.289062 -0.210937
v 0.835938 0.171875 -0.273438
v -0.835938 0.171875 -0.273438
v 0.757812 0.093750 -0.273438
v -0.757812 0.093750 -0.273438
v 0.820312 0.085938 -0.273438
v -0.820312 0.085938 -0.273438
v 0.843750 0.015625 -0.273438
v -0.843750 0.015625 -0.273438
v 0.812500 -0.015625 -0.273438
v -0.812500 -0.015625 -0.273438
v 0.726562 0.000000 -0.070312
v -0.726562 0.000000 -0.070312
v 0.718750 -0.023437 -0.171875
v -0.718750 -0.023437 -0.171875
v 0.718750 0.039063 -0.187500
v -0.718750 0.039063 -0.187500
v 0.796875 0.203125 -0.210937
v -0.796875 0.203125 -0.210937
v 0.890625 0.242188 -0.265625
v -0.890625 0.242188 -0.265625
v 0.890625 0.234375 -0.320312
v -0.890625 0.234375 -0.320312
v 0.812500 -0.015625 -0.320312
v -0.812500 -0.015625 -0.320312
v 0.851562 0.015625 -0.320312
v -0.851562 0.015625 -0.320312
v 0.828125 0.078125 -0.320312
v -0.828125 0.078125 -0.320312
v 0.765625 0.093750 -0.320312
v -0.765625 0.093750 -0.320312
v 0.843750 0.171875 -0.320312
v -0.843750 0.171875 -0.320312
v 1.039062 0.328125 -0.414062
v -1.039062 0.328125 -0.414062
v 1.187500 0.343750 -0.484375
v -1.187500 0.343750 -0.484375
v 1.257812 0.242188 -0.492188
v -1.257812 0.242188 -0.492188
v 1.210938 0.085938 -0.484375
v -1.210938 0.085938 -0.484375
v 1.046875 0.000000 -0.421875
v -1.046875 0.000000 -0.421875
v 0.882812 -0.015625 -0.265625
v -0.882812 -0.015625 -0.265625
v 0.953125 0.289063 -0.343750
v -0.953125 0.289063 -0.343750
v 0.890625 0.109375 -0.328125
v -0.890625 0.109375 -0.328125
v 0.937500 0.062500 -0.335938
v -0.937500 0.062500 -0.335938
v 1.000000 0.125000 -0.367188
v -1.000000 0.125000 -0.367188
v 0.960938 0.171875 -0.351562
v -0.960938 0.171875 -0.351562
v 1.015625 0.234375 -0.375000
v -1.015625 0.234375 -0.375000
v 1.054688 0.187500 -0.382812
v -1.054688 0.187500 -0.382812
v 1.109375 0.210938 -0.390625
v -1.109375 0.210938 -0.390625
v 1.085938 0.273438 -0.390625
v -1.085938 0.273438 -0.390625
v 1.023438 0.437500 -0.484375
v -1.023438 0.437500 -0.484375
v 1.250000 0.468750 -0.546875
v -1.250000 0.468750 -0.546875
v 1.367188 0.296875 -0.500000
v -1.367188 0.296875 -0.500000
v 1.312500 0.054688 -0.531250
v -1.312500 0.054688 -0.531250
v 1.039062 -0.085937 -0.492188
v -1.039062 -0.085937 -0.492188
v 0.789062 -0.125000 -0.328125
v -0.789062 -0.125000 -0.328125
v 0.859375 0.382813 -0.382812
v -0.859375 0.382813 -0.382812
vt 0.621030 0.702109
vt 0.621407 0.687585
vt 0.642735 0.711889
vt 0.568094 0.551021
vt 0.588605 0.559210
vt 0.566126 0.582454
vt 0.642290 0.680398
vt 0.667408 0.723030
vt 0.540942 0.544823
vt 0.540942 0.592387
vt 0.619306 0.660833
vt 0.669710 0.675521
vt 0.576487 0.507303
vt 0.591998 0.532591
vt 0.610675 0.675946
vt 0.599888 0.548104
vt 0.595822 0.675849
vt 0.590101 0.657382
vt 0.621336 0.530557
vt 0.614728 0.548726
vt 0.636023 0.636325
vt 0.630724 0.504625
vt 0.565121 0.676462
vt 0.540942 0.667217
vt 0.669961 0.542760
vt 0.645363 0.550824
vt 0.583846 0.685357
vt 0.626230 0.558802
vt 0.584092 0.701703
vt 0.642723 0.582997
vt 0.625193 0.575117
vt 0.566201 0.708726
vt 0.542829 0.721901
vt 0.665431 0.597288
vt 0.587659 0.731201
vt 0.581583 0.757179
vt 0.625015 0.630650
vt 0.620203 0.604408
vt 0.594050 0.712691
vt 0.614715 0.585611
vt 0.609832 0.712965
vt 0.618814 0.732531
vt 0.589020 0.604229
vt 0.598938 0.585120
vt 0.632425 0.757179
vt 0.574232 0.628190
vt 0.588279 0.573735
vt 0.608294 0.710203
vt 0.600608 0.582436
vt 0.595229 0.708348
vt 0.613747 0.581215
vt 0.587927 0.699835
vt 0.621453 0.573066
vt 0.588858 0.687784
vt 0.621106 0.560984
vt 0.613441 0.552771
vt 0.596912 0.679951
vt 0.602172 0.552003
vt 0.608205 0.679730
vt 0.591655 0.560095
vt 0.618317 0.688321
vt 0.590609 0.572866
vt 0.602210 0.693836
vt 0.618745 0.701128
vt 0.607477 0.566383
vt 0.036078 0.423269
vt 0.040822 0.434419
vt 0.018303 0.450605
vt 0.016450 0.543803
vt 0.038964 0.560347
vt 0.034067 0.571529
vt 0.049126 0.415177
vt 0.048520 0.429131
vt 0.046663 0.565755
vt 0.047126 0.579817
vt 0.054882 0.414384
vt 0.060740 0.431505
vt 0.058996 0.563492
vt 0.075531 0.413664
vt 0.077199 0.436419
vt 0.075626 0.558719
vt 0.052916 0.580677
vt 0.118181 0.405306
vt 0.124690 0.440375
vt 0.123480 0.555253
vt 0.073705 0.581619
vt 0.184317 0.395915
vt 0.228116 0.359295
vt 0.224425 0.460389
vt 0.251223 0.607378
vt 0.226728 0.637780
vt 0.223993 0.536278
vt 0.265551 0.333949
vt 0.284050 0.349032
vt 0.282873 0.648447
vt 0.264186 0.663485
vt 0.305383 0.301315
vt 0.312561 0.663271
vt 0.304007 0.696503
vt 0.346230 0.317271
vt 0.344493 0.335994
vt 0.343473 0.661902
vt 0.345112 0.680705
vt 0.365627 0.329780
vt 0.354694 0.347744
vt 0.353775 0.650168
vt 0.364648 0.668254
vt 0.398336 0.366666
vt 0.381842 0.387270
vt 0.381227 0.610673
vt 0.397656 0.631421
vt 0.416508 0.402068
vt 0.396158 0.589706
vt 0.416052 0.596016
vt 0.416638 0.422534
vt 0.397802 0.424822
vt 0.397423 0.573122
vt 0.416282 0.575509
vt 0.406589 0.470131
vt 0.375395 0.462458
vt 0.375190 0.535314
vt 0.406446 0.527803
vt 0.401176 0.498951
vt 0.361279 0.498835
vt 0.360448 0.444596
vt 0.366502 0.423251
vt 0.366062 0.574523
vt 0.360123 0.553104
vt 0.365138 0.408062
vt 0.364604 0.589736
vt 0.357700 0.389034
vt 0.396625 0.408266
vt 0.357033 0.608770
vt 0.342251 0.359981
vt 0.341362 0.637819
vt 0.328770 0.352190
vt 0.327787 0.645555
vt 0.308471 0.353514
vt 0.313708 0.334451
vt 0.307421 0.644101
vt 0.280379 0.374865
vt 0.279368 0.622481
vt 0.266738 0.399167
vt 0.252238 0.389706
vt 0.278596 0.442906
vt 0.265856 0.597990
vt 0.291902 0.453310
vt 0.265270 0.498413
vt 0.291528 0.543889
vt 0.336221 0.461434
vt 0.310940 0.461531
vt 0.312787 0.498656
vt 0.310660 0.535807
vt 0.037601 0.454584
vt 0.027972 0.461068
vt 0.026301 0.533365
vt 0.050098 0.451926
vt 0.035932 0.539999
vt 0.070924 0.463128
vt 0.048493 0.542809
vt 0.069591 0.531747
vt 0.126274 0.469563
vt 0.075851 0.532739
vt 0.125409 0.525882
vt 0.077148 0.462210
vt 0.163309 0.468912
vt 0.150123 0.487126
vt 0.125767 0.485973
vt 0.125094 0.509347
vt 0.149652 0.508480
vt 0.162667 0.526997
vt 0.059459 0.484014
vt 0.058263 0.510581
vt 0.182707 0.460343
vt 0.183681 0.472956
vt 0.171482 0.521693
vt 0.183199 0.523226
vt 0.205041 0.468313
vt 0.197441 0.475684
vt 0.196968 0.520710
vt 0.204453 0.528145
vt 0.211383 0.497538
vt 0.201467 0.486453
vt 0.201108 0.510232
vt 0.199625 0.500002
vt 0.192729 0.497989
vt 0.171996 0.474300
vt 0.157043 0.491583
vt 0.176747 0.480523
vt 0.176358 0.515506
vt 0.156663 0.504079
vt 0.184522 0.497989
vt 0.194430 0.510010
vt 0.194720 0.486439
vt 0.192502 0.516714
vt 0.192902 0.479631
vt 0.183845 0.478570
vt 0.183462 0.517612
vt 0.165211 0.494423
vt 0.164914 0.501316
vt 0.177627 0.551853
vt 0.182033 0.535850
vt 0.157362 0.442731
vt 0.156365 0.553255
vt 0.148572 0.398677
vt 0.147066 0.597469
vt 0.116554 0.590487
vt 0.165144 0.396836
vt 0.178502 0.444376
vt 0.163717 0.599483
vt 0.056760 0.483313
vt 0.055537 0.511259
vt 0.050478 0.456543
vt 0.064323 0.530055
vt 0.048925 0.538162
vt 0.037482 0.458733
vt 0.035856 0.535818
vt 0.029731 0.463142
vt 0.028094 0.531295
vt 0.041153 0.467847
vt 0.039650 0.526676
vt 0.046070 0.529493
vt 0.065677 0.464751
vt 0.047554 0.465118
vt 0.052151 0.526668
vt 0.046366 0.479420
vt 0.045025 0.515071
vt 0.035091 0.471881
vt 0.053560 0.467985
vt 0.033586 0.522548
vt 0.313333 0.450212
vt 0.297425 0.551645
vt 0.312972 0.547161
vt 0.332045 0.446784
vt 0.331692 0.550728
vt 0.335973 0.536088
vt 0.287743 0.435530
vt 0.287214 0.561675
vt 0.278103 0.554207
vt 0.279007 0.594287
vt 0.279813 0.402954
vt 0.288465 0.614495
vt 0.289386 0.382884
vt 0.308125 0.633438
vt 0.309104 0.364140
vt 0.325847 0.633535
vt 0.338536 0.368926
vt 0.337689 0.628823
vt 0.349062 0.393342
vt 0.348398 0.604397
vt 0.354883 0.589501
vt 0.355439 0.408239
vt 0.355427 0.576470
vt 0.355901 0.421244
vt 0.348525 0.561215
vt 0.348917 0.436425
vt 0.350990 0.420079
vt 0.342916 0.567292
vt 0.350498 0.577605
vt 0.350637 0.408818
vt 0.350073 0.588890
vt 0.345592 0.395094
vt 0.344929 0.602618
vt 0.326764 0.364156
vt 0.324544 0.370339
vt 0.333290 0.622921
vt 0.323658 0.627316
vt 0.293490 0.386066
vt 0.310870 0.627165
vt 0.292606 0.611331
vt 0.285825 0.402639
vt 0.285038 0.594648
vt 0.297851 0.445618
vt 0.303035 0.439572
vt 0.292106 0.565840
vt 0.302573 0.557743
vt 0.343357 0.430324
vt 0.330098 0.557253
vt 0.330498 0.440258
vt 0.314413 0.556263
vt 0.314839 0.441138
vt 0.445277 0.499045
vt 0.445661 0.526295
vt 0.445765 0.471812
vt 0.447287 0.577786
vt 0.439771 0.384670
vt 0.439288 0.613565
vt 0.415914 0.341609
vt 0.415167 0.656641
vt 0.377960 0.304837
vt 0.376898 0.693355
vt 0.351614 0.706223
vt 0.299744 0.284968
vt 0.298250 0.712894
vt 0.250458 0.689926
vt 0.252054 0.307559
vt 0.218995 0.655048
vt 0.047325 0.330894
vt 0.059626 0.314821
vt 0.109700 0.319718
vt 0.107159 0.676584
vt 0.056670 0.681019
vt 0.044439 0.664702
vt 0.011969 0.370266
vt 0.072618 0.346548
vt 0.070076 0.649190
vt 0.009224 0.624671
vt 0.002528 0.415569
vt 0.041101 0.378347
vt 0.038657 0.616833
vt 0.000188 0.578932
vt 0.010220 0.438785
vt 0.031410 0.408097
vt 0.008182 0.555625
vt 0.029206 0.586764
vt 0.048750 0.406199
vt 0.046653 0.588857
vt 0.063202 0.390833
vt 0.061049 0.604486
vt 0.097042 0.366196
vt 0.094872 0.629649
vt 0.134270 0.361385
vt 0.132307 0.634868
vt 0.153928 0.363704
vt 0.169128 0.373382
vt 0.167510 0.623118
vt 0.152120 0.632724
vt 0.182991 0.600572
vt 0.181675 0.380451
vt 0.220552 0.342056
vt 0.180199 0.616108
vt 0.150137 0.047978
vt 0.187685 0.111751
vt 0.162794 0.146496
vt 0.159047 0.851605
vt 0.183814 0.886850
vt 0.145387 0.950779
vt 0.105857 0.098862
vt 0.137975 0.201215
vt 0.134539 0.796235
vt 0.101227 0.899088
vt 0.075813 0.175986
vt 0.065039 0.295549
vt 0.114569 0.701282
vt 0.061933 0.700489
vt 0.117293 0.295269
vt 0.301442 0.286962
vt 0.255980 0.316309
vt 0.287966 0.222826
vt 0.239998 0.752686
vt 0.254486 0.681305
vt 0.285890 0.775817
vt 0.244682 0.000188
vt 0.253166 0.090910
vt 0.249618 0.908454
vt 0.240238 0.999812
vt 0.487033 0.121418
vt 0.410484 0.162581
vt 0.376704 0.123448
vt 0.374426 0.876785
vt 0.408829 0.837649
vt 0.485610 0.879835
vt 0.433913 0.056333
vt 0.340593 0.003091
vt 0.332195 0.905648
vt 0.336932 0.997763
vt 0.335066 0.094435
vt 0.386107 0.281088
vt 0.360090 0.290867
vt 0.371230 0.235744
vt 0.352338 0.742066
vt 0.359200 0.707887
vt 0.369929 0.763549
vt 0.353587 0.256899
vt 0.360016 0.172936
vt 0.335233 0.796600
vt 0.358056 0.826754
vt 0.337105 0.202646
vt 0.335549 0.139789
vt 0.318758 0.830777
vt 0.333095 0.859940
vt 0.321065 0.168593
vt 0.303678 0.120507
vt 0.291283 0.850629
vt 0.300797 0.879084
vt 0.259063 0.156589
vt 0.251259 0.125593
vt 0.248012 0.873481
vt 0.256160 0.842313
vt 0.425230 0.239516
vt 0.424392 0.760238
vt 0.437228 0.267809
vt 0.385336 0.717981
vt 0.436742 0.731830
vt 0.525873 0.200293
vt 0.525476 0.800688
vt 0.515652 0.231080
vt 0.506252 0.279125
vt 0.476222 0.290319
vt 0.476250 0.709496
vt 0.506417 0.721053
vt 0.515454 0.769564
vt 0.540567 0.230909
vt 0.540565 0.769963
vt 0.300050 0.711292
vt 0.291435 0.202066
vt 0.289199 0.796772
vt 0.280287 0.181132
vt 0.277773 0.817770
vt 0.293984 0.148652
vt 0.172904 0.208347
vt 0.169802 0.789368
vt 0.242230 0.245369
vt 0.182405 0.280682
vt 0.180035 0.716574
vt 0.218257 0.168819
vt 0.201124 0.142364
vt 0.197638 0.856121
vt 0.215146 0.829616
vt 0.206314 0.213914
vt 0.203520 0.784062
vt 0.755219 0.121362
vt 0.779717 0.084344
vt 0.796548 0.089410
vt 0.544903 0.200259
vt 0.561207 0.206828
vt 0.557182 0.251035
vt 0.773404 0.124636
vt 0.716812 0.142928
vt 0.555688 0.294736
vt 0.540942 0.242220
vt 0.573673 0.291879
vt 0.729063 0.156402
vt 0.691137 0.167044
vt 0.578634 0.326753
vt 0.694233 0.151858
vt 0.650432 0.148589
vt 0.621941 0.337799
vt 0.585712 0.312965
vt 0.661862 0.140808
vt 0.608010 0.114606
vt 0.676296 0.337799
vt 0.617886 0.324580
vt 0.617911 0.104261
vt 0.572296 0.044800
vt 0.743494 0.325582
vt 0.747813 0.305648
vt 0.601358 0.371186
vt 0.610237 0.381258
vt 0.572762 0.374960
vt 0.801454 0.459083
vt 0.763663 0.465453
vt 0.772629 0.455281
vt 0.643960 0.371014
vt 0.647415 0.379085
vt 0.726125 0.463259
vt 0.683573 0.352734
vt 0.680297 0.364861
vt 0.692916 0.448893
vt 0.689607 0.436645
vt 0.713872 0.338175
vt 0.709405 0.357484
vt 0.663515 0.441443
vt 0.659002 0.421937
vt 0.753096 0.338175
vt 0.747192 0.356943
vt 0.625343 0.440899
vt 0.619378 0.421937
vt 0.777600 0.341524
vt 0.602902 0.441263
vt 0.594613 0.425324
vt 0.231268 0.206455
vt 0.228600 0.791805
vt 0.568940 0.000188
vt 0.563203 0.063057
vt 0.778323 0.272929
vt 0.237417 0.777377
vt 0.792648 0.054030
vt 0.807790 0.056340
vt 0.556805 0.167420
vt 0.558153 0.366109
vt 0.544889 0.378866
vt 0.806252 0.478358
vt 0.829540 0.463386
vt 0.565606 0.402761
vt 0.540942 0.387673
vt 0.833311 0.472319
vt 0.809136 0.486616
vt 0.812989 0.395083
vt 0.834015 0.389644
vt 0.813582 0.407181
vt 0.817291 0.494776
vt 0.794909 0.378660
vt 0.805270 0.367851
vt 0.540942 0.476442
vt 0.566585 0.452110
vt 0.577611 0.462847
vt 0.793881 0.353171
vt 0.578143 0.437117
vt 0.783710 0.365769
vt 0.588516 0.449851
vt 0.263498 0.188832
vt 0.273065 0.180674
vt 0.270490 0.818165
vt 0.260922 0.809857
vt 0.239887 0.220849
vt 0.239372 0.200968
vt 0.236718 0.797408
vt 0.769415 0.357294
vt 0.762498 0.366000
vt 0.595219 0.458042
vt 0.609882 0.450047
vt 0.787593 0.384611
vt 0.584577 0.468679
vt 0.568948 0.483134
vt 0.561979 0.477136
vt 0.807919 0.412935
vt 0.812031 0.501690
vt 0.828617 0.492964
vt 0.822993 0.414579
vt 0.817245 0.421562
vt 0.802477 0.492270
vt 0.568224 0.394226
vt 0.572703 0.407364
vt 0.797861 0.483951
vt 0.576549 0.399334
vt 0.796200 0.466386
vt 0.739807 0.365588
vt 0.632803 0.449631
vt 0.704386 0.367518
vt 0.668584 0.451578
vt 0.681533 0.376253
vt 0.691668 0.460400
vt 0.652158 0.386013
vt 0.721336 0.470255
vt 0.616266 0.388483
vt 0.757578 0.472745
vt 0.681458 0.730866
vt 0.679152 0.718389
vt 0.699313 0.716578
vt 0.747151 0.649448
vt 0.767384 0.648851
vt 0.766577 0.661514
vt 0.695216 0.730092
vt 0.718158 0.723337
vt 0.729241 0.658396
vt 0.752824 0.662380
vt 0.713984 0.735241
vt 0.729576 0.742340
vt 0.715239 0.667541
vt 0.720162 0.678621
vt 0.733148 0.730753
vt 0.744677 0.731271
vt 0.703853 0.669424
vt 0.743296 0.757141
vt 0.720968 0.757141
vt 0.744975 0.743258
vt 0.730466 0.692296
vt 0.704981 0.681362
vt 0.705281 0.752608
vt 0.734800 0.669721
vt 0.745503 0.685932
vt 0.692463 0.745160
vt 0.757347 0.677014
vt 0.672395 0.739074
vt 0.776551 0.668588
vt 0.670086 0.719774
vt 0.678095 0.705541
vt 0.766908 0.635969
vt 0.721903 0.695323
vt 0.722196 0.631025
vt 0.758706 0.699311
vt 0.686127 0.639357
vt 0.777897 0.724685
vt 0.670086 0.666830
vt 0.773300 0.748190
vt 0.677442 0.689623
vt 0.708297 0.694947
vt 0.649378 0.098311
vt 0.713182 0.274763
vt 0.654198 0.299219
vt 0.673701 0.131111
vt 0.675037 0.323535
vt 0.614708 0.309609
vt 0.691489 0.142627
vt 0.593625 0.307476
vt 0.705821 0.135597
vt 0.586835 0.293030
vt 0.720403 0.110799
vt 0.590959 0.264559
vt 0.618633 0.042348
vt 0.718661 0.040657
vt 0.570067 0.175085
vt 0.636172 0.210905
vt 0.739046 0.071829
vt 0.600774 0.222488
vt 0.650148 0.000188
vt 0.714945 0.222156
vt 0.581979 0.631025
vt 0.077129 0.485578
vt 0.076086 0.509195
vt 0.334116 0.374781
vt 0.311799 0.370408
vt 0.292655 0.431414
vt 0.447601 0.420407
vt 0.352841 0.291893
vt 0.071660 0.821082
vt 0.431476 0.944952
vt 0.816151 0.450189
vt 0.729614 0.455109
vt 0.540942 0.037032
vt 0.777139 0.319188
vt 0.777035 0.373934
vt 0.803402 0.400600
vt 0.826575 0.504249
vt 0.577985 0.382191
vt 0.776551 0.649149
vn 0.970580 -0.015168 0.240181
vn 0.711631 -0.679250 0.179327
vn 0.801782 -0.000977 0.597583
vn -0.568621 -0.557360 0.604968
vn -0.711631 -0.679250 0.179327
vn -0.801782 -0.000977 0.597583
vn 0.568621 -0.557360 0.604968
vn 0.868399 -0.002270 0.495860
vn -0.658603 -0.552636 0.510722
vn -0.868399 -0.002270 0.495860
vn 0.135929 -0.724357 0.675863
vn 0.658602 -0.552636 0.510722
vn -0.151762 -0.793384 0.589500
vn -0.135929 -0.724357 0.675863
vn 0.026856 -0.978973 0.202185
vn -0.026856 -0.978973 0.202185
vn -0.632435 -0.705954 0.318766
vn -0.431288 -0.553606 0.712363
vn 0.431288 -0.553606 0.712363
vn 0.632435 -0.705954 0.318766
vn 0.151762 -0.793384 0.589500
vn 0.547247 -0.639426 0.540051
vn -0.690115 0.000336 0.723685
vn -0.811936 -0.000940 0.583746
vn 0.811936 -0.000940 0.583746
vn 0.690115 0.000336 0.723685
vn -0.955748 -0.018250 0.293588
vn 0.955748 -0.018250 0.293588
vn -0.645833 0.694693 0.316630
vn 0.460402 0.527726 0.713767
vn 0.645833 0.694693 0.316630
vn -0.460402 0.527726 0.713767
vn -0.525071 0.625461 0.577147
vn 0.525071 0.625461 0.577147
vn 0.100864 0.739555 0.665456
vn 0.116361 0.843517 0.524346
vn -0.116361 0.843517 0.524346
vn -0.100864 0.739555 0.665456
vn 0.043336 0.971313 0.233741
vn -0.043336 0.971313 0.233741
vn 0.716178 0.677053 0.169225
vn 0.609790 0.492203 0.621143
vn -0.609790 0.492203 0.621143
vn -0.716178 0.677053 0.169225
vn 0.672675 0.534716 0.511456
vn -0.672675 0.534716 0.511456
vn -0.970580 -0.015168 0.240181
vn 0.717948 0.658193 0.226417
vn -0.717948 0.658193 0.226417
vn 0.030793 0.939726 0.340495
vn -0.030793 0.939726 0.340495
vn -0.607074 0.644795 0.464400
vn 0.607074 0.644795 0.464400
vn -0.923856 -0.013306 0.382427
vn 0.923856 -0.013306 0.382427
vn 0.599200 -0.652425 0.463973
vn -0.599200 -0.652425 0.463973
vn -0.030305 -0.941191 0.336497
vn 0.030305 -0.941191 0.336497
vn -0.710624 -0.665792 0.227363
vn 0.710624 -0.665792 0.227363
vn -0.962584 -0.011292 0.270669
vn 0.183599 -0.005310 0.982971
vn 0.962584 -0.011292 0.270669
vn -0.183599 -0.005310 0.982971
vn 0.147160 -0.978057 0.147404
vn 0.146062 -0.788720 0.597125
vn 0.000000 -0.766656 0.642018
vn -0.146062 -0.788720 0.597125
vn -0.147160 -0.978057 0.147404
vn 0.623890 -0.777184 0.081668
vn 0.357830 -0.633290 0.686209
vn -0.357830 -0.633290 0.686209
vn -0.623890 -0.777184 0.081668
vn 0.938444 -0.345103 0.014252
vn 0.531480 -0.237861 0.812952
vn -0.531480 -0.237861 0.812952
vn 0.978179 0.080081 0.191687
vn 0.556566 -0.045656 0.829524
vn -0.556566 -0.045656 0.829524
vn -0.938444 -0.345103 0.014252
vn 0.963622 0.232734 0.131199
vn 0.570360 0.075137 0.817927
vn -0.570360 0.075137 0.817927
vn -0.978179 0.080081 0.191687
vn 0.936064 -0.336802 0.101566
vn 0.338298 -0.940672 -0.025025
vn -0.120579 -0.287240 0.950224
vn -0.438826 -0.518998 0.733482
vn -0.338298 -0.940672 -0.025025
vn 0.120579 -0.287240 0.950224
vn 0.581133 -0.781213 0.227912
vn 0.481735 -0.373577 0.792688
vn -0.481735 -0.373577 0.792688
vn -0.581133 -0.781213 0.227912
vn 0.911802 -0.386059 -0.139866
vn -0.625019 -0.315714 0.713858
vn -0.911802 -0.386059 -0.139866
vn 0.883724 0.392834 0.254280
vn 0.525010 -0.437666 0.729911
vn -0.525010 -0.437666 0.729911
vn -0.883724 0.392834 0.254280
vn 0.434889 0.886593 0.157414
vn 0.345073 -0.068087 0.936094
vn -0.345073 -0.068087 0.936094
vn -0.434889 0.886593 0.157414
vn 0.602344 0.781274 0.163610
vn 0.290201 -0.040590 0.956084
vn -0.290201 -0.040590 0.956084
vn -0.602344 0.781274 0.163610
vn 0.218940 0.961943 0.163274
vn -0.261391 0.206458 0.942869
vn -0.218940 0.961943 0.163274
vn -0.595233 0.779077 0.196753
vn -0.130619 0.157781 0.978790
vn 0.130619 0.157781 0.978790
vn 0.595233 0.779077 0.196753
vn -0.810816 0.562304 0.162267
vn -0.023072 -0.175695 0.984161
vn 0.023072 -0.175695 0.984161
vn 0.810816 0.562304 0.162267
vn 0.000000 0.934080 0.357006
vn 0.000000 -0.030091 0.999542
vn 0.278664 -0.214545 0.936094
vn 0.222877 -0.111332 0.968444
vn -0.222877 -0.111332 0.968444
vn -0.278664 -0.214545 0.936094
vn 0.138340 -0.104190 0.984863
vn -0.138340 -0.104190 0.984863
vn 0.291940 0.106296 0.950499
vn 0.261391 0.206458 0.942869
vn -0.291940 0.106296 0.950499
vn 0.081545 -0.288308 0.954039
vn -0.081545 -0.288308 0.954039
vn 0.204047 -0.125462 0.970855
vn -0.204047 -0.125462 0.970855
vn 0.455184 -0.237373 0.858150
vn 0.625019 -0.315714 0.713858
vn -0.455184 -0.237373 0.858150
vn 0.421644 -0.403058 0.812220
vn -0.421644 -0.403058 0.812220
vn 0.345805 -0.372234 0.861263
vn 0.438826 -0.518998 0.733482
vn -0.000916 -0.275307 0.961333
vn -0.345805 -0.372234 0.861263
vn -0.282662 -0.146336 0.947966
vn 0.000000 0.023225 0.999725
vn 0.282662 -0.146336 0.947966
vn 0.088595 -0.080569 0.992798
vn -0.158055 -0.186285 0.969665
vn 0.000000 -0.298441 0.954405
vn 0.158055 -0.186285 0.969665
vn -0.070894 -0.387036 0.919309
vn 0.000000 -0.411603 0.911344
vn 0.172948 -0.282754 0.943449
vn 0.070894 -0.387036 0.919309
vn 0.156987 -0.132542 0.978637
vn -0.172948 -0.282754 0.943449
vn -0.156987 -0.132542 0.978637
vn 0.136204 -0.004028 0.990661
vn -0.192938 -0.046358 0.980102
vn -0.136204 -0.004028 0.990661
vn 0.192938 -0.046358 0.980102
vn 0.432936 -0.464339 0.772607
vn 0.000000 -0.458022 0.888913
vn 0.000000 -0.004883 0.999969
vn -0.432936 -0.464339 0.772607
vn 0.000000 -0.610096 0.792322
vn 0.819605 -0.279183 0.500259
vn 0.949583 -0.177892 0.258095
vn -0.514969 -0.744621 0.424604
vn -0.949583 -0.177892 0.258095
vn -0.427076 0.574236 0.698416
vn 0.627552 0.771203 0.106479
vn -0.627552 0.771203 0.106479
vn 0.427076 0.574236 0.698416
vn 0.000000 0.399121 0.916868
vn -0.292520 0.943937 0.152806
vn 0.292520 0.943937 0.152806
vn 0.000000 0.838038 0.545579
vn 0.000000 0.972320 0.233528
vn 0.514969 -0.744621 0.424604
vn 0.000000 -0.870785 0.491592
vn 0.269021 -0.771874 0.576006
vn -0.269021 -0.771874 0.576006
vn 0.000000 0.176153 0.984344
vn 0.145390 0.590960 0.793451
vn -0.145390 0.590960 0.793451
vn -0.364666 0.463973 0.807276
vn 0.364666 0.463973 0.807276
vn 0.467605 -0.215186 0.857326
vn -0.467605 -0.215186 0.857326
vn 0.000000 -0.522172 0.852809
vn -0.836604 0.046083 0.545824
vn -0.819605 -0.279183 0.500259
vn 0.655446 0.133946 0.743248
vn -0.655446 0.133946 0.743248
vn 0.922819 0.371471 0.101871
vn -0.922819 0.371471 0.101871
vn -0.963622 0.232734 0.131199
vn 0.928922 0.361003 0.082034
vn 0.836604 0.046083 0.545824
vn -0.928922 0.361003 0.082034
vn 0.000000 -0.952239 0.305307
vn -0.633198 -0.000183 0.773980
vn 0.210639 -0.466750 0.858913
vn 0.633198 -0.000183 0.773980
vn -0.366924 0.603717 0.707694
vn 0.366924 0.603717 0.707694
vn 0.000000 0.592303 0.805689
vn -0.318979 0.469222 0.823420
vn 0.318979 0.469222 0.823420
vn 0.671468 0.144963 0.726707
vn -0.210639 -0.466750 0.858913
vn -0.671468 0.144963 0.726707
vn 0.516800 -0.703696 0.487533
vn 0.000000 -0.693747 0.720176
vn 0.000000 0.527390 0.849605
vn -0.516800 -0.703696 0.487533
vn 0.118717 -0.055208 0.991363
vn 0.044038 0.005310 0.998993
vn -0.118717 -0.055208 0.991363
vn 0.255715 -0.137944 0.956847
vn -0.255715 -0.137944 0.956847
vn -0.088595 -0.080569 0.992798
vn -0.030885 -0.186071 0.982025
vn 0.030885 -0.186071 0.982025
vn 0.000916 -0.275307 0.961333
vn -0.249458 -0.171087 0.953124
vn 0.249458 -0.171087 0.953124
vn -0.263497 -0.028809 0.964202
vn 0.263497 -0.028809 0.964202
vn -0.281503 -0.021332 0.959288
vn 0.281503 -0.021332 0.959288
vn -0.168096 -0.079531 0.982543
vn 0.310068 -0.103214 0.945067
vn -0.310068 -0.103214 0.945067
vn 0.196112 -0.195929 0.960784
vn -0.196112 -0.195929 0.960784
vn -0.029572 0.058473 0.997833
vn 0.029572 0.058473 0.997833
vn -0.174657 0.098758 0.979644
vn 0.174657 0.098758 0.979644
vn -0.175176 -0.091525 0.980255
vn 0.175176 -0.091525 0.980255
vn 0.300714 -0.264101 0.916418
vn -0.500841 -0.444339 0.742779
vn -0.300714 -0.264101 0.916418
vn -0.013592 -0.368018 0.929719
vn 0.013592 -0.368018 0.929719
vn -0.139491 -0.915399 0.377607
vn 0.139491 -0.915399 0.377607
vn 0.168096 -0.079531 0.982543
vn -0.383988 -0.135081 0.913404
vn 0.134645 -0.552964 0.822254
vn 0.383987 -0.135081 0.913404
vn -0.133848 0.598601 0.789786
vn 0.147722 0.189871 0.970632
vn 0.133848 0.598601 0.789786
vn 0.183353 0.552343 0.813203
vn -0.183353 0.552343 0.813203
vn -0.044038 0.005310 0.998993
vn 0.692016 0.295756 0.658515
vn -0.419672 0.600841 0.680342
vn -0.692016 0.295756 0.658515
vn 0.500841 -0.444339 0.742779
vn -0.793856 -0.286537 0.536367
vn 0.793856 -0.286537 0.536367
vn -0.798691 0.019394 0.601429
vn 0.798691 0.019394 0.601429
vn 0.000000 0.886868 0.461959
vn 0.563402 0.765130 0.311624
vn -0.563402 0.765130 0.311624
vn 0.470138 0.525224 -0.709250
vn 0.112644 0.654836 -0.747276
vn -0.112644 0.654836 -0.747276
vn 0.275338 0.887692 -0.368938
vn -0.275338 0.887692 -0.368938
vn 0.362590 0.911954 -0.191870
vn -0.362590 0.911954 -0.191870
vn -0.739097 0.606952 -0.292032
vn 0.856471 -0.470870 -0.211341
vn -0.856471 -0.470870 -0.211341
vn -0.626057 -0.778191 -0.049348
vn 0.626057 -0.778191 -0.049348
vn -0.367626 -0.909513 -0.193915
vn 0.000000 -0.326731 -0.945097
vn 0.000000 -0.710898 -0.703269
vn 0.609485 -0.776421 -0.160131
vn -0.609485 -0.776421 -0.160131
vn 0.000000 -0.356853 -0.934141
vn 0.408521 -0.291971 -0.864772
vn -0.408521 -0.291971 -0.864772
vn 0.000000 -0.867061 -0.498154
vn 0.172246 -0.199896 -0.964538
vn -0.172246 -0.199896 -0.964538
vn 0.000000 -0.971221 0.238075
vn 0.039674 -0.749474 -0.660787
vn -0.039674 -0.749474 -0.660787
vn 0.630482 -0.407788 -0.660421
vn -0.630482 -0.407788 -0.660421
vn 0.613178 0.041017 -0.788842
vn -0.613178 0.041017 -0.788842
vn 0.624897 0.122379 -0.771020
vn -0.624897 0.122379 -0.771020
vn 0.943876 0.105594 -0.312906
vn -0.943876 0.105594 -0.312906
vn 0.998230 0.018311 0.056459
vn 0.956206 -0.136235 0.258950
vn -0.956206 -0.136235 0.258950
vn -0.998230 0.018311 0.056459
vn -0.936064 -0.336802 0.101566
vn 0.752586 -0.591113 0.290109
vn 0.367626 -0.909513 -0.193915
vn -0.752586 -0.591113 0.290109
vn 0.000000 -0.264321 -0.964415
vn 0.440352 -0.320841 -0.838496
vn 0.526444 -0.659352 -0.536699
vn -0.526444 -0.659352 -0.536699
vn -0.440352 -0.320841 -0.838496
vn 0.000000 -0.695578 -0.718406
vn 0.501724 -0.833308 -0.232002
vn -0.501724 -0.833308 -0.232002
vn 0.000000 -0.936583 -0.350383
vn 0.000000 -0.981475 -0.191473
vn -0.574694 -0.818323 0.000885
vn 0.574694 -0.818323 0.000885
vn 0.985504 -0.161412 0.052156
vn -0.750359 -0.650197 0.119053
vn -0.985504 -0.161412 0.052156
vn 0.000000 0.314829 -0.949126
vn 0.512650 0.168615 -0.841853
vn -0.512650 0.168615 -0.841853
vn 0.000000 0.847743 0.530381
vn 0.479781 0.718162 0.504013
vn 0.428785 0.902493 0.039796
vn -0.428785 0.902493 0.039796
vn -0.479781 0.718162 0.504013
vn 0.000000 0.999756 0.021729
vn 0.000000 0.846492 -0.532365
vn -0.426527 0.799676 -0.422498
vn 0.426527 0.799676 -0.422498
vn 0.739097 0.606952 -0.292032
vn 0.354289 0.818659 0.451918
vn -0.624470 0.780328 -0.033204
vn -0.354289 0.818659 0.451918
vn 0.624470 0.780328 -0.033204
vn 0.655019 0.685110 0.318613
vn -0.790765 0.485611 0.372570
vn -0.655019 0.685110 0.318613
vn 0.790765 0.485611 0.372570
vn 0.659536 0.748070 -0.073275
vn -0.867824 0.496811 0.002960
vn -0.659536 0.748070 -0.073275
vn 0.867824 0.496811 0.002960
vn 0.498611 0.550218 -0.669790
vn -0.893521 0.254524 -0.369823
vn -0.498611 0.550218 -0.669790
vn 0.669942 -0.017060 -0.742180
vn 0.609943 -0.022065 -0.792108
vn -0.609943 -0.022065 -0.792108
vn -0.669942 -0.017060 -0.742180
vn 0.364483 0.902860 0.227973
vn -0.364483 0.902860 0.227973
vn 0.000000 0.517228 0.855800
vn -0.470138 0.525224 -0.709250
vn 0.997925 0.040437 -0.049684
vn -0.997925 0.040437 -0.049684
vn 0.835170 0.529893 0.147160
vn -0.835170 0.529893 0.147160
vn 0.893521 0.254524 -0.369823
vn 0.596820 -0.785852 -0.161840
vn -0.596820 -0.785852 -0.161840
vn 0.750359 -0.650197 0.119053
vn 0.567309 -0.808283 0.157537
vn -0.567309 -0.808283 0.157537
vn 0.281991 -0.651753 -0.704001
vn 0.542100 -0.499283 -0.675863
vn -0.542100 -0.499283 -0.675863
vn -0.281991 -0.651753 -0.704001
vn 0.333506 -0.938871 -0.085238
vn -0.333506 -0.938871 -0.085238
vn -0.037965 0.887082 0.460036
vn -0.329600 0.748497 0.575365
vn 0.391888 -0.023072 0.919706
vn -0.391888 -0.023072 0.919706
vn 0.329600 0.748497 0.575365
vn 0.037965 0.887082 0.460036
vn 0.571978 -0.114872 0.812159
vn 0.365947 0.871059 0.327555
vn -0.391095 -0.121403 0.912290
vn -0.571978 -0.114872 0.812159
vn -0.365947 0.871059 0.327555
vn 0.391095 -0.121403 0.912290
vn -0.154607 -0.077700 0.984893
vn 0.154607 -0.077700 0.984893
vn 0.762596 0.175115 0.622700
vn -0.045839 0.361248 0.931333
vn 0.045839 0.361248 0.931333
vn -0.762596 0.175115 0.622700
vn 0.680380 -0.426405 0.595996
vn 0.499130 0.288949 0.816919
vn -0.499130 0.288949 0.816919
vn -0.680380 -0.426405 0.595996
vn 0.461257 -0.798151 0.387494
vn -0.021424 -0.683279 0.729820
vn -0.355480 0.228431 0.906308
vn 0.021424 -0.683279 0.729820
vn -0.208777 0.953673 0.216468
vn 0.252144 0.854823 0.453505
vn -0.252144 0.854823 0.453505
vn 0.208777 0.953673 0.216468
vn -0.809534 0.584704 -0.052431
vn 0.809534 0.584704 -0.052431
vn -0.993072 -0.055208 0.103519
vn 0.993072 -0.055208 0.103519
vn -0.127598 -0.758476 0.639058
vn 0.127598 -0.758476 0.639058
vn 0.558458 -0.654469 0.509629
vn -0.558458 -0.654469 0.509629
vn -0.727409 -0.512742 0.456008
vn 0.734062 0.141392 0.664174
vn -0.734062 0.141392 0.664174
vn 0.355480 0.228431 0.906308
vn -0.971038 -0.203528 -0.125004
vn 0.786157 -0.217750 0.578356
vn -0.786157 -0.217750 0.578356
vn -0.804621 0.430494 0.408918
vn 0.875362 -0.183599 0.447188
vn 0.934416 -0.089084 0.344829
vn -0.934416 -0.089084 0.344829
vn -0.875362 -0.183599 0.447188
vn 0.954314 0.102573 0.280587
vn 0.570055 0.736076 0.364940
vn -0.570055 0.736076 0.364940
vn 0.746544 -0.565935 0.349773
vn 0.853206 -0.408429 0.324259
vn -0.853206 -0.408429 0.324259
vn -0.746544 -0.565935 0.349773
vn 0.665517 -0.560930 0.492325
vn -0.665517 -0.560930 0.492325
vn 0.971038 -0.203528 -0.125004
vn 0.727409 -0.512742 0.456008
vn 0.621509 -0.442213 0.646626
vn -0.663869 -0.467299 0.583819
vn -0.621509 -0.442213 0.646626
vn 0.517594 -0.452284 0.726279
vn -0.517594 -0.452284 0.726279
vn -0.767510 0.233589 0.596912
vn -0.954314 0.102573 0.280587
vn 0.424299 0.457137 0.781640
vn -0.424299 0.457137 0.781640
vn 0.318278 0.387738 0.865047
vn -0.318278 0.387738 0.865047
vn 0.804621 0.430494 0.408918
vn -0.651234 0.269478 0.709403
vn 0.651234 0.269478 0.709403
vn 0.047365 0.938444 0.342112
vn 0.520493 -0.249794 0.816492
vn -0.520493 -0.249794 0.816492
vn -0.208350 -0.539689 0.815638
vn 0.208350 -0.539689 0.815638
vn -0.760613 -0.032777 0.648335
vn 0.760613 -0.032777 0.648335
vn -0.600940 0.491745 0.630055
vn 0.600940 0.491745 0.630055
vn 0.110843 0.695120 0.710288
vn -0.110843 0.695120 0.710288
vn 0.403455 0.151097 0.902402
vn -0.403455 0.151097 0.902402
vn 0.193274 -0.005554 0.981109
vn 0.418226 -0.076937 0.905057
vn -0.418226 -0.076937 0.905057
vn -0.193274 -0.005554 0.981109
vn 0.372265 -0.019379 0.927915
vn 0.299570 -0.054537 0.952483
vn -0.325419 -0.115177 0.938505
vn -0.299570 -0.054537 0.952483
vn 0.325419 -0.115177 0.938505
vn 0.462752 -0.381817 0.800012
vn -0.462752 -0.381817 0.800012
vn 0.358562 0.308054 0.881191
vn -0.358562 0.308054 0.881191
vn 0.663869 -0.467299 0.583819
vn -0.372265 -0.019379 0.927915
vn 0.767510 0.233589 0.596912
vn -0.047365 0.938444 0.342112
vn -0.064669 -0.682638 -0.727836
vn 0.225867 -0.848079 -0.479293
vn 0.064669 -0.682638 -0.727836
vn 0.659566 -0.485519 -0.573779
vn -0.461257 -0.798151 0.387494
vn -0.659566 -0.485519 -0.573779
vn 0.923978 0.086001 -0.372600
vn -0.923978 0.086001 -0.372600
vn 0.279580 0.620777 -0.732414
vn -0.279580 0.620777 -0.732414
vn -0.427778 0.575518 -0.696951
vn 0.427778 0.575518 -0.696951
vn -0.225867 -0.848079 -0.479293
vn -0.652333 0.601001 -0.461715
vn 0.652333 0.601001 -0.461715
vn -0.547247 -0.639426 0.540051
vn 0.000000 -0.034669 0.999390
vn -0.134645 -0.552964 0.822254
vn -0.147722 0.189871 0.970632
vn 0.419672 0.600841 0.680342
usemtl Material.001
s 1
f 47/1/1 1/2/2 45/3/3
f 4/4/4 2/5/5 46/6/6
f 45/3/3 3/7/7 43/8/8
f 6/9/9 4/4/4 44/10/10
f 3/7/7 9/11/11 5/12/12
f 8/13/13 10/14/14 6/9/9
f 1/2/2 11/15/15 3/7/7
f 10/14/14 12/16/16 4/4/4
f 11/15/15 13/17/17 15/18/18
f 16/19/19 14/20/20 12/16/16
f 9/11/11 15/18/18 7/21/21
f 18/22/22 16/19/19 8/13/13
f 15/18/18 21/23/23 19/24/24
f 20/25/25 22/26/26 16/19/19
f 13/17/17 23/27/27 21/23/23
f 22/26/26 24/28/28 14/20/20
f 23/27/27 25/29/29 21/23/23
f 28/30/30 26/31/31 22/26/26
f 21/23/23 27/32/32 29/33/33
f 30/34/34 28/30/30 22/26/26
f 27/32/32 33/35/35 31/36/36
f 32/37/37 34/38/38 28/30/30
f 25/29/29 35/39/39 33/35/35
f 34/38/38 36/40/40 26/31/31
f 35/39/39 37/41/41 39/42/42
f 40/43/43 38/44/44 36/40/40
f 33/35/35 39/42/42 41/45/45
f 42/46/46 40/43/43 34/38/38
f 39/42/42 45/3/3 43/8/8
f 44/10/10 46/6/6 40/43/43
f 37/41/41 47/1/1 45/3/3
f 46/6/6 48/47/47 38/44/44
f 47/1/1 37/41/41 51/48/48
f 52/49/49 38/44/44 48/47/47
f 37/41/41 35/39/39 53/50/50
f 54/51/51 36/40/40 38/44/44
f 35/39/39 25/29/29 55/52/52
f 56/53/53 26/31/31 36/40/40
f 25/29/29 23/27/27 57/54/54
f 58/55/55 24/28/28 26/31/31
f 23/27/27 13/17/17 57/54/54
f 60/56/56 14/20/20 58/55/55
f 13/17/17 11/15/15 59/57/57
f 64/58/58 12/16/16 60/56/56
f 11/15/15 1/2/2 63/59/59
f 66/60/60 2/5/5 64/58/58
f 1/2/2 47/1/1 65/61/61
f 50/62/62 48/47/47 66/60/60
f 61/63/63 65/61/61 49/64/64
f 50/62/62 66/60/60 62/65/65
f 63/59/59 65/61/61 61/63/63
f 62/65/65 66/60/60 64/58/58
f 61/63/63 59/57/57 63/59/59
f 64/58/58 60/56/56 62/65/65
f 61/63/63 57/54/54 59/57/57
f 60/56/56 58/55/55 62/65/65
f 61/63/63 55/52/52 57/54/54
f 58/55/55 56/53/53 62/65/65
f 61/63/63 53/50/50 55/52/52
f 56/53/53 54/51/51 62/65/65
f 61/63/63 51/48/48 53/50/50
f 54/51/51 52/49/49 62/65/65
f 61/63/63 49/64/64 51/48/48
f 52/49/49 50/62/62 62/65/65
f 89/66/66 174/67/67 176/68/68
f 176/69/68 175/70/69 90/71/70
f 87/72/71 172/73/72 174/67/67
f 175/70/69 173/74/73 88/75/74
f 85/76/75 170/77/76 87/72/71
f 173/74/73 171/78/77 88/75/74
f 83/79/78 168/80/79 85/76/75
f 171/78/77 169/81/80 86/82/81
f 81/83/82 166/84/83 83/79/78
f 169/81/80 167/85/84 84/86/85
f 79/87/86 92/88/87 164/89/88
f 147/90/89 93/91/90 165/92/91
f 92/88/87 94/93/92 148/94/93
f 149/95/94 95/96/95 93/91/90
f 94/93/92 96/97/96 148/94/93
f 151/98/97 97/99/98 149/95/94
f 96/97/96 98/100/99 152/101/100
f 153/102/101 99/103/102 97/99/98
f 98/100/99 100/104/103 154/105/104
f 155/106/105 101/107/106 99/103/102
f 100/104/103 102/108/107 156/109/108
f 157/110/109 103/111/110 101/107/106
f 102/108/107 104/112/111 156/109/108
f 159/113/112 105/114/113 157/110/109
f 104/112/111 106/115/114 160/116/115
f 161/117/116 107/118/117 105/114/113
f 106/115/114 108/119/118 162/120/119
f 163/121/120 109/122/121 107/118/117
f 108/119/118 67/123/122 68/124/123
f 68/124/123 67/123/122 109/122/121
f 110/125/124 128/126/125 160/116/115
f 161/117/116 129/127/126 111/128/127
f 128/126/125 179/129/128 160/116/115
f 159/113/112 180/130/129 161/117/116
f 126/131/130 156/109/108 158/132/131
f 159/113/112 157/110/109 127/133/132
f 124/134/133 154/105/104 156/109/108
f 157/110/109 155/106/105 125/135/134
f 122/136/135 152/101/100 154/105/104
f 155/106/105 153/102/101 123/137/136
f 120/138/137 150/139/138 152/101/100
f 153/102/101 151/98/97 121/140/139
f 118/141/140 148/94/93 150/139/138
f 151/98/97 149/95/94 119/142/141
f 116/143/142 146/144/143 118/141/140
f 149/95/94 147/90/89 119/142/141
f 114/145/144 164/89/88 116/143/142
f 147/90/89 165/92/91 117/146/145
f 114/145/144 181/147/146 164/89/88
f 177/148/147 182/149/148 165/92/91
f 110/125/124 162/120/119 68/124/123
f 68/124/123 163/121/120 111/128/127
f 112/150/149 68/124/123 183/151/150
f 178/152/151 68/124/123 184/153/152
f 177/148/147 181/147/146 183/151/150
f 184/153/152 182/149/148 177/148/147
f 135/154/153 137/155/154 174/67/67
f 176/69/68 137/156/154 175/70/69
f 133/157/155 135/154/153 172/73/72
f 175/70/69 136/158/156 173/74/73
f 131/159/157 133/157/155 172/73/72
f 173/74/73 134/160/158 132/161/159
f 166/84/83 187/162/160 168/80/79
f 186/163/161 188/164/162 169/81/80
f 131/159/157 170/77/76 185/165/163
f 169/81/80 171/78/77 186/163/161
f 144/166/164 190/167/165 189/168/166
f 189/169/166 190/170/165 145/171/167
f 185/165/163 187/162/160 189/168/166
f 189/169/166 188/164/162 186/163/161
f 130/172/168 131/159/157 185/165/163
f 186/163/161 132/161/159 130/173/168
f 142/174/169 193/175/170 144/166/164
f 192/176/171 194/177/172 145/171/167
f 140/178/173 195/179/174 193/175/170
f 194/177/172 196/180/175 141/181/176
f 139/182/177 197/183/178 195/179/174
f 196/180/175 198/184/179 139/182/177
f 138/185/180 71/186/181 197/183/178
f 198/184/179 71/186/181 138/185/180
f 190/167/165 144/166/164 191/187/182
f 192/176/171 145/171/167 190/170/165
f 70/188/183 191/187/182 206/189/184
f 207/190/185 192/176/171 70/191/183
f 71/186/181 199/192/186 197/183/178
f 201/193/187 199/192/186 198/184/179
f 197/183/178 200/194/188 195/179/174
f 203/195/189 201/193/187 196/180/175
f 195/179/174 202/196/190 204/197/191
f 205/198/192 203/195/189 196/180/175
f 193/175/170 204/197/191 191/187/182
f 207/190/185 205/198/192 192/176/171
f 199/192/186 204/197/191 202/196/190
f 203/195/189 205/198/192 199/192/186
f 199/192/186 208/199/193 204/197/191
f 207/190/185 208/200/193 205/198/192
f 139/182/177 140/178/173 177/148/147
f 165/92/91 141/181/176 177/148/147
f 140/178/173 142/174/169 164/89/88
f 212/201/194 143/202/195 165/92/91
f 142/174/169 144/166/164 213/203/196
f 214/204/197 145/171/167 143/202/195
f 144/166/164 187/162/160 166/84/83
f 167/85/84 188/164/162 145/171/167
f 81/83/82 209/205/198 213/203/196
f 214/204/197 210/206/199 82/207/200
f 209/205/198 215/208/201 211/209/202
f 212/201/194 216/210/203 210/206/199
f 79/87/86 164/89/88 215/208/201
f 212/201/194 165/92/91 216/210/203
f 131/159/157 130/172/168 72/211/204
f 72/212/204 130/173/168 132/161/159
f 133/157/155 131/159/157 220/213/205
f 223/214/206 132/161/159 221/215/207
f 135/154/153 133/157/155 218/216/208
f 221/215/207 134/160/158 219/217/209
f 137/155/154 135/154/153 217/218/210
f 219/217/209 136/158/156 217/219/210
f 217/218/210 218/216/208 229/220/211
f 230/221/212 219/217/209 217/219/210
f 218/216/208 220/213/205 229/220/211
f 228/222/213 221/215/207 230/221/212
f 220/213/205 222/223/214 227/224/215
f 226/225/216 223/214/206 228/222/213
f 222/223/214 72/211/204 224/226/217
f 224/227/217 72/212/204 223/214/206
f 224/226/217 231/228/218 225/229/219
f 230/221/212 231/230/218 226/225/216
f 225/229/219 229/220/211 227/224/215
f 228/222/213 230/221/212 226/225/216
f 183/151/150 181/147/146 232/231/220
f 235/232/221 182/149/148 233/233/222
f 112/150/149 183/151/150 254/234/223
f 233/233/222 184/153/152 255/235/224
f 110/125/124 112/150/149 254/234/223
f 255/235/224 113/236/225 111/128/127
f 181/147/146 114/145/144 252/237/226
f 253/238/227 115/239/228 182/149/148
f 114/145/144 116/143/142 252/237/226
f 251/240/229 117/146/145 253/238/227
f 116/143/142 118/141/140 250/241/230
f 249/242/231 119/142/141 251/240/229
f 118/141/140 120/138/137 248/243/232
f 247/244/233 121/140/139 249/242/231
f 120/138/137 122/136/135 246/245/234
f 245/246/235 123/137/136 247/244/233
f 122/136/135 124/134/133 242/247/236
f 243/248/237 125/135/134 123/137/136
f 124/134/133 126/131/130 240/249/238
f 241/250/239 127/133/132 125/135/134
f 126/131/130 179/129/128 240/249/238
f 237/251/240 180/130/129 241/250/239
f 179/129/128 128/126/125 236/252/241
f 239/253/242 129/127/126 237/251/240
f 128/126/125 110/125/124 238/254/243
f 257/255/244 111/128/127 239/253/242
f 238/254/243 256/256/245 276/257/246
f 259/258/247 257/255/244 277/259/248
f 236/252/241 238/254/243 278/260/249
f 277/259/248 239/253/242 279/261/250
f 240/249/238 236/252/241 278/260/249
f 279/261/250 237/251/240 241/250/239
f 242/247/236 240/249/238 274/262/251
f 275/263/252 241/250/239 243/248/237
f 244/264/253 242/247/236 270/265/254
f 273/266/255 243/248/237 271/267/256
f 246/245/234 244/264/253 270/265/254
f 271/267/256 245/246/235 247/244/233
f 248/243/232 246/245/234 266/268/257
f 269/269/258 247/244/233 267/270/259
f 250/241/230 248/243/232 266/268/257
f 267/270/259 249/242/231 251/240/229
f 252/237/226 250/241/230 264/271/260
f 265/272/261 251/240/229 253/238/227
f 234/273/262 252/237/226 280/274/263
f 263/275/264 253/238/227 281/276/265
f 256/256/245 254/234/223 258/277/266
f 261/278/267 255/235/224 259/258/247
f 254/234/223 232/231/220 260/279/268
f 283/280/269 233/233/222 261/278/267
f 232/231/220 234/273/262 282/281/270
f 281/276/265 235/232/221 283/280/269
f 67/123/122 108/119/118 73/282/271
f 285/283/272 109/122/121 73/282/271
f 108/119/118 106/115/114 284/284/273
f 287/285/274 107/118/117 285/283/272
f 106/115/114 104/112/111 288/286/275
f 289/287/276 105/114/113 107/118/117
f 104/112/111 102/108/107 290/288/277
f 291/289/278 103/111/110 105/114/113
f 102/108/107 100/104/103 292/290/279
f 293/291/280 101/107/106 103/111/110
f 100/104/103 98/100/99 292/290/279
f 295/292/281 99/103/102 293/291/280
f 98/100/99 96/97/96 296/293/282
f 297/294/283 97/99/98 99/103/102
f 96/97/96 94/93/92 296/293/282
f 299/295/284 95/96/95 297/294/283
f 94/93/92 92/88/87 298/296/285
f 301/297/286 93/91/90 299/295/284
f 308/298/287 309/299/288 328/300/289
f 329/301/290 309/302/288 308/303/287
f 307/304/291 308/298/287 338/305/292
f 339/306/293 308/303/287 307/307/291
f 306/308/294 307/304/291 336/309/295
f 337/310/296 307/307/291 306/311/294
f 89/66/66 91/312/297 340/313/298
f 306/311/294 91/314/297 341/315/299
f 87/72/71 89/66/66 334/316/300
f 341/315/299 90/71/70 335/317/301
f 85/76/75 87/72/71 330/318/302
f 335/317/301 88/75/74 331/319/303
f 83/79/78 85/76/75 332/320/304
f 331/319/303 86/82/81 333/321/305
f 330/318/302 336/309/295 332/320/304
f 339/306/293 337/310/296 333/321/305
f 330/318/302 334/316/300 340/313/298
f 341/315/299 335/317/301 331/319/303
f 326/322/306 332/320/304 338/305/292
f 339/306/293 333/321/305 327/323/307
f 81/83/82 83/79/78 326/322/306
f 333/321/305 84/86/85 327/323/307
f 209/205/198 342/324/308 344/325/309
f 345/326/310 343/327/311 210/206/199
f 81/83/82 326/322/306 342/324/308
f 343/327/311 327/323/307 82/207/200
f 79/87/86 215/208/201 344/325/309
f 345/326/310 216/210/203 80/328/312
f 79/87/86 346/329/313 300/330/314
f 301/297/286 347/331/315 80/328/312
f 77/332/316 324/333/317 352/334/318
f 353/335/319 325/336/320 77/337/316
f 304/338/321 352/334/318 350/339/322
f 351/340/323 353/335/319 304/341/321
f 78/342/324 350/339/322 305/343/325
f 349/344/326 351/340/323 305/345/325
f 305/343/325 348/346/327 309/299/288
f 329/301/290 349/344/326 309/302/288
f 326/322/306 328/300/289 348/346/327
f 349/344/326 329/301/290 327/323/307
f 296/347/282 298/348/285 310/349/328
f 319/350/329 299/351/284 311/352/330
f 76/353/331 316/354/332 324/333/317
f 325/336/320 317/355/333 76/356/331
f 302/357/334 358/358/335 356/359/336
f 357/360/337 359/361/338 302/362/334
f 303/363/339 356/359/336 75/364/340
f 355/365/341 357/360/337 75/366/340
f 75/364/340 354/367/342 76/353/331
f 317/355/333 355/365/341 76/356/331
f 292/368/279 294/369/343 364/370/344
f 363/371/345 295/372/281 365/373/346
f 364/370/344 362/374/347 366/375/348
f 369/376/349 363/371/345 367/377/350
f 366/375/348 368/378/351 372/379/352
f 371/380/353 369/376/349 373/381/354
f 372/379/352 370/382/355 374/383/356
f 377/384/357 371/380/353 375/385/358
f 314/386/359 378/387/360 374/383/356
f 375/385/358 379/388/361 315/389/362
f 316/354/332 354/367/342 378/387/360
f 375/385/358 355/365/341 379/388/361
f 354/367/342 356/359/336 374/383/356
f 373/381/354 357/360/337 375/385/358
f 356/359/336 358/358/335 372/379/352
f 367/377/350 359/361/338 373/381/354
f 358/358/335 360/390/363 366/375/348
f 365/373/346 361/391/364 367/377/350
f 290/392/277 292/368/279 364/370/344
f 365/373/346 293/393/280 291/394/278
f 74/395/365 360/390/363 358/358/335
f 359/361/338 361/391/364 74/396/365
f 284/397/273 286/398/366 288/399/275
f 289/400/276 287/401/274 285/402/272
f 284/397/273 290/392/277 74/395/365
f 361/391/364 291/394/278 74/396/365
f 73/403/271 284/397/273 74/395/365
f 74/396/365 285/402/272 73/404/271
f 294/369/343 296/347/282 310/349/328
f 311/352/330 297/405/283 295/372/281
f 310/349/328 312/406/367 362/374/347
f 369/376/349 313/407/368 363/371/345
f 312/406/367 382/408/369 368/378/351
f 371/380/353 383/409/370 369/376/349
f 314/386/359 376/410/371 370/382/355
f 371/380/353 377/384/357 315/389/362
f 348/346/327 350/339/322 386/411/372
f 387/412/373 351/340/323 349/344/326
f 318/413/374 384/414/375 386/411/372
f 387/412/373 385/415/376 319/350/329
f 298/348/285 300/330/314 318/413/374
f 385/415/376 301/297/286 319/350/329
f 300/330/314 344/325/309 384/414/375
f 343/327/311 345/326/310 385/415/376
f 342/324/308 348/346/327 384/414/375
f 385/415/376 349/344/326 343/327/311
f 300/330/314 346/329/313 344/325/309
f 345/326/310 347/331/315 301/297/286
f 314/386/359 322/416/377 380/417/378
f 381/418/379 323/419/380 315/389/362
f 316/354/332 378/387/360 380/417/378
f 381/418/379 379/388/361 317/355/333
f 320/420/381 386/411/372 380/417/378
f 381/418/379 387/412/373 321/421/382
f 350/339/322 352/334/318 380/417/378
f 381/418/379 353/335/319 351/340/323
f 324/333/317 380/417/378 352/334/318
f 353/335/319 381/418/379 325/336/320
f 400/422/383 388/423/384 414/424/385
f 415/425/386 389/426/387 401/427/388
f 400/422/383 402/428/389 398/429/390
f 405/430/391 403/431/392 399/432/393
f 398/429/390 404/433/394 406/434/395
f 407/435/396 405/430/391 399/432/393
f 396/436/397 406/434/395 408/437/398
f 409/438/399 407/435/396 397/439/400
f 394/440/401 408/437/398 410/441/402
f 411/442/403 409/438/399 395/443/404
f 392/444/405 410/441/402 390/445/406
f 413/446/407 411/442/403 391/447/408
f 410/448/402 420/449/409 418/450/410
f 419/451/411 421/452/412 411/453/403
f 408/454/398 422/455/413 410/448/402
f 421/452/412 423/456/414 411/453/403
f 406/457/395 424/458/415 422/455/413
f 423/456/414 425/459/416 407/460/396
f 404/461/394 426/462/417 424/458/415
f 425/459/416 427/463/418 405/464/391
f 402/465/389 428/466/419 426/462/417
f 427/463/418 429/467/420 403/468/392
f 402/465/389 414/469/385 428/466/419
f 417/470/421 415/471/386 429/467/420
f 318/413/374 320/420/381 444/472/422
f 445/473/423 321/421/382 319/350/329
f 320/474/381 390/445/406 412/475/424
f 413/446/407 391/447/408 321/476/382
f 310/349/328 318/413/374 312/406/367
f 443/477/425 319/350/329 313/407/368
f 382/478/369 430/479/426 388/423/384
f 415/425/386 431/480/427 389/426/387
f 412/481/424 418/450/410 444/482/422
f 441/483/428 419/451/411 445/484/423
f 438/485/429 446/486/430 444/482/422
f 445/484/423 447/487/431 439/488/432
f 434/489/433 446/490/430 436/491/434
f 439/488/432 447/487/431 437/492/435
f 432/493/436 448/494/437 446/490/430
f 447/495/431 449/496/438 433/497/439
f 430/498/426 448/494/437 432/493/436
f 433/497/439 449/496/438 431/499/427
f 414/469/385 430/498/426 450/500/440
f 451/501/441 431/499/427 415/471/386
f 312/406/367 448/502/437 430/503/426
f 431/504/427 449/505/438 313/407/368
f 312/406/367 442/506/442 446/507/430
f 447/508/431 443/477/425 313/407/368
f 442/506/442 444/472/422 446/507/430
f 447/508/431 445/473/423 443/477/425
f 416/509/443 450/500/440 476/510/444
f 453/511/445 451/501/441 477/512/446
f 450/500/440 432/493/436 462/513/447
f 463/514/448 433/497/439 451/501/441
f 432/493/436 434/489/433 462/513/447
f 461/515/449 435/516/450 463/514/448
f 434/489/433 436/491/434 458/517/451
f 459/518/452 437/492/435 435/519/450
f 436/491/434 438/520/429 456/521/453
f 457/522/454 439/488/432 437/492/435
f 438/485/429 440/523/455 456/524/453
f 455/525/456 441/483/428 457/522/454
f 440/523/455 418/450/410 454/526/457
f 475/527/458 419/451/411 455/525/456
f 428/466/419 416/509/443 464/528/459
f 477/512/446 417/470/421 465/529/460
f 426/462/417 428/466/419 466/530/461
f 465/529/460 429/467/420 467/531/462
f 424/458/415 426/462/417 468/532/463
f 467/531/462 427/463/418 469/533/464
f 422/455/413 424/458/415 468/532/463
f 469/533/464 425/459/416 423/456/414
f 420/449/409 422/455/413 470/534/465
f 471/535/466 423/456/414 421/452/412
f 418/450/410 420/449/409 472/536/467
f 473/537/468 421/452/412 419/451/411
f 458/538/451 456/539/453 480/540/469
f 481/541/470 457/542/454 459/543/452
f 478/544/471 480/540/469 482/545/472
f 483/546/473 481/541/470 479/547/474
f 484/548/475 482/545/472 486/549/476
f 489/550/477 483/546/473 487/551/478
f 486/549/476 488/552/479 490/553/480
f 491/554/481 489/550/477 487/551/478
f 464/555/459 476/556/444 492/557/482
f 487/551/478 477/558/446 493/559/483
f 452/560/484 484/548/475 486/549/476
f 487/551/478 485/561/485 453/562/445
f 452/560/484 462/563/447 478/544/471
f 479/547/474 463/564/448 453/562/445
f 458/538/451 478/544/471 460/565/486
f 463/564/448 479/547/474 461/566/449
f 454/567/457 474/568/487 456/539/453
f 481/541/470 475/569/458 457/542/454
f 472/570/467 482/545/472 480/540/469
f 481/541/470 483/546/473 473/571/468
f 470/572/465 488/552/479 482/545/472
f 483/546/473 489/550/477 471/573/466
f 468/574/463 490/553/480 488/552/479
f 489/550/477 491/554/481 469/575/464
f 466/576/461 492/557/482 468/574/463
f 491/554/481 493/559/483 469/575/464
f 464/555/459 492/557/482 466/576/461
f 467/577/462 493/559/483 465/578/460
f 392/444/405 390/445/406 502/579/488
f 505/580/489 391/447/408 503/581/490
f 394/440/401 392/444/405 500/582/491
f 503/581/490 393/583/492 501/584/493
f 396/436/397 394/440/401 500/582/491
f 501/584/493 395/443/404 397/439/400
f 398/429/390 396/436/397 498/585/494
f 499/586/495 397/439/400 399/432/393
f 400/422/383 398/429/390 496/587/496
f 497/588/497 399/432/393 401/427/388
f 388/423/384 400/422/383 494/589/498
f 495/590/499 401/427/388 389/426/387
f 494/589/498 502/579/488 504/591/500
f 505/580/489 503/581/490 495/590/499
f 494/589/498 496/587/496 502/579/488
f 501/584/493 497/588/497 503/581/490
f 496/587/496 498/585/494 500/582/491
f 501/584/493 499/586/495 497/588/497
f 314/592/359 382/478/369 388/423/384
f 389/426/387 383/593/370 315/594/362
f 314/592/359 506/595/501 504/591/500
f 505/580/489 507/596/502 315/594/362
f 320/474/381 322/597/377 390/445/406
f 505/580/489 323/598/380 391/447/408
f 1/2/2 3/7/7 45/3/3
f 2/5/5 48/47/47 46/6/6
f 3/7/7 5/12/12 43/8/8
f 4/4/4 46/6/6 44/10/10
f 9/11/11 7/21/21 5/12/12
f 10/14/14 4/4/4 6/9/9
f 11/15/15 9/11/11 3/7/7
f 12/16/16 2/5/5 4/4/4
f 9/11/11 11/15/15 15/18/18
f 10/14/14 16/19/19 12/16/16
f 15/18/18 17/599/503 7/21/21
f 16/19/19 10/14/14 8/13/13
f 17/599/503 15/18/18 19/24/24
f 18/22/22 20/25/25 16/19/19
f 15/18/18 13/17/17 21/23/23
f 16/19/19 22/26/26 14/20/20
f 25/29/29 27/32/32 21/23/23
f 26/31/31 24/28/28 22/26/26
f 19/24/24 21/23/23 29/33/33
f 20/25/25 30/34/34 22/26/26
f 29/33/33 27/32/32 31/36/36
f 30/34/34 32/37/37 28/30/30
f 27/32/32 25/29/29 33/35/35
f 28/30/30 34/38/38 26/31/31
f 33/35/35 35/39/39 39/42/42
f 34/38/38 40/43/43 36/40/40
f 31/36/36 33/35/35 41/45/45
f 32/37/37 42/46/46 34/38/38
f 41/45/45 39/42/42 43/8/8
f 42/46/46 44/10/10 40/43/43
f 39/42/42 37/41/41 45/3/3
f 40/43/43 46/6/6 38/44/44
f 49/64/64 47/1/1 51/48/48
f 50/62/62 52/49/49 48/47/47
f 51/48/48 37/41/41 53/50/50
f 52/49/49 54/51/51 38/44/44
f 53/50/50 35/39/39 55/52/52
f 54/51/51 56/53/53 36/40/40
f 55/52/52 25/29/29 57/54/54
f 56/53/53 58/55/55 26/31/31
f 13/17/17 59/57/57 57/54/54
f 14/20/20 24/28/28 58/55/55
f 11/15/15 63/59/59 59/57/57
f 12/16/16 14/20/20 60/56/56
f 1/2/2 65/61/61 63/59/59
f 2/5/5 12/16/16 64/58/58
f 47/1/1 49/64/64 65/61/61
f 48/47/47 2/5/5 66/60/60
f 91/312/297 89/66/66 176/68/68
f 91/314/297 176/69/68 90/71/70
f 89/66/66 87/72/71 174/67/67
f 90/71/70 175/70/69 88/75/74
f 170/77/76 172/73/72 87/72/71
f 171/78/77 86/82/81 88/75/74
f 168/80/79 170/77/76 85/76/75
f 169/81/80 84/86/85 86/82/81
f 166/84/83 168/80/79 83/79/78
f 167/85/84 82/207/200 84/86/85
f 92/88/87 146/144/143 164/89/88
f 93/91/90 80/328/312 165/92/91
f 146/144/143 92/88/87 148/94/93
f 147/90/89 149/95/94 93/91/90
f 96/97/96 150/139/138 148/94/93
f 97/99/98 95/96/95 149/95/94
f 150/139/138 96/97/96 152/101/100
f 151/98/97 153/102/101 97/99/98
f 152/101/100 98/100/99 154/105/104
f 153/102/101 155/106/105 99/103/102
f 154/105/104 100/104/103 156/109/108
f 155/106/105 157/110/109 101/107/106
f 104/112/111 158/132/131 156/109/108
f 105/114/113 103/111/110 157/110/109
f 158/132/131 104/112/111 160/116/115
f 159/113/112 161/117/116 105/114/113
f 160/116/115 106/115/114 162/120/119
f 161/117/116 163/121/120 107/118/117
f 162/120/119 108/119/118 68/124/123
f 163/121/120 68/124/123 109/122/121
f 162/120/119 110/125/124 160/116/115
f 163/121/120 161/117/116 111/128/127
f 179/129/128 158/132/131 160/116/115
f 180/130/129 129/127/126 161/117/116
f 179/129/128 126/131/130 158/132/131
f 180/130/129 159/113/112 127/133/132
f 126/131/130 124/134/133 156/109/108
f 127/133/132 157/110/109 125/135/134
f 124/134/133 122/136/135 154/105/104
f 125/135/134 155/106/105 123/137/136
f 122/136/135 120/138/137 152/101/100
f 123/137/136 153/102/101 121/140/139
f 120/138/137 118/141/140 150/139/138
f 121/140/139 151/98/97 119/142/141
f 146/144/143 148/94/93 118/141/140
f 147/90/89 117/146/145 119/142/141
f 164/89/88 146/144/143 116/143/142
f 165/92/91 115/239/228 117/146/145
f 181/147/146 177/148/147 164/89/88
f 182/149/148 115/239/228 165/92/91
f 112/150/149 110/125/124 68/124/123
f 113/236/225 68/124/123 111/128/127
f 68/124/123 178/152/151 183/151/150
f 68/124/123 113/236/225 184/153/152
f 178/152/151 177/148/147 183/151/150
f 178/152/151 184/153/152 177/148/147
f 137/155/154 176/68/68 174/67/67
f 137/156/154 136/158/156 175/70/69
f 135/154/153 174/67/67 172/73/72
f 136/158/156 134/160/158 173/74/73
f 170/77/76 131/159/157 172/73/72
f 171/78/77 173/74/73 132/161/159
f 187/162/160 185/165/163 168/80/79
f 188/164/162 167/85/84 169/81/80
f 170/77/76 168/80/79 185/165/163
f 171/78/77 132/161/159 186/163/161
f 187/162/160 144/166/164 189/168/166
f 188/164/162 189/169/166 145/171/167
f 69/600/504 185/165/163 189/168/166
f 69/601/504 189/169/166 186/163/161
f 69/600/504 130/172/168 185/165/163
f 69/601/504 186/163/161 130/173/168
f 193/175/170 191/187/182 144/166/164
f 194/177/172 143/202/195 145/171/167
f 142/174/169 140/178/173 193/175/170
f 143/202/195 194/177/172 141/181/176
f 140/178/173 139/182/177 195/179/174
f 141/181/176 196/180/175 139/182/177
f 139/182/177 138/185/180 197/183/178
f 139/182/177 198/184/179 138/185/180
f 70/188/183 190/167/165 191/187/182
f 70/191/183 192/176/171 190/170/165
f 208/199/193 70/188/183 206/189/184
f 208/200/193 207/190/185 70/191/183
f 199/192/186 200/194/188 197/183/178
f 199/192/186 71/186/181 198/184/179
f 200/194/188 202/196/190 195/179/174
f 201/193/187 198/184/179 196/180/175
f 193/175/170 195/179/174 204/197/191
f 194/177/172 205/198/192 196/180/175
f 204/197/191 206/189/184 191/187/182
f 205/198/192 194/177/172 192/176/171
f 200/194/188 199/192/186 202/196/190
f 201/193/187 203/195/189 199/192/186
f 208/199/193 206/189/184 204/197/191
f 208/200/193 199/192/186 205/198/192
f 140/178/173 164/89/88 177/148/147
f 141/181/176 139/182/177 177/148/147
f 142/174/169 211/209/202 164/89/88
f 143/202/195 141/181/176 165/92/91
f 211/209/202 142/174/169 213/203/196
f 212/201/194 214/204/197 143/202/195
f 213/203/196 144/166/164 166/84/83
f 214/204/197 167/85/84 145/171/167
f 166/84/83 81/83/82 213/203/196
f 167/85/84 214/204/197 82/207/200
f 213/203/196 209/205/198 211/209/202
f 214/204/197 212/201/194 210/206/199
f 164/89/88 211/209/202 215/208/201
f 165/92/91 80/328/312 216/210/203
f 222/223/214 131/159/157 72/211/204
f 223/214/206 72/212/204 132/161/159
f 131/159/157 222/223/214 220/213/205
f 132/161/159 134/160/158 221/215/207
f 133/157/155 220/213/205 218/216/208
f 134/160/158 136/158/156 219/217/209
f 135/154/153 218/216/208 217/218/210
f 136/158/156 137/156/154 217/219/210
f 231/228/218 217/218/210 229/220/211
f 231/230/218 230/221/212 217/219/210
f 220/213/205 227/224/215 229/220/211
f 221/215/207 219/217/209 230/221/212
f 222/223/214 225/229/219 227/224/215
f 223/214/206 221/215/207 228/222/213
f 225/229/219 222/223/214 224/226/217
f 226/225/216 224/227/217 223/214/206
f 231/228/218 229/220/211 225/229/219
f 231/230/218 224/227/217 226/225/216
f 181/147/146 234/273/262 232/231/220
f 182/149/148 184/153/152 233/233/222
f 183/151/150 232/231/220 254/234/223
f 184/153/152 113/236/225 255/235/224
f 256/256/245 110/125/124 254/234/223
f 257/255/244 255/235/224 111/128/127
f 234/273/262 181/147/146 252/237/226
f 235/232/221 253/238/227 182/149/148
f 116/143/142 250/241/230 252/237/226
f 117/146/145 115/239/228 253/238/227
f 118/141/140 248/243/232 250/241/230
f 119/142/141 117/146/145 251/240/229
f 120/138/137 246/245/234 248/243/232
f 121/140/139 119/142/141 249/242/231
f 122/136/135 244/264/253 246/245/234
f 123/137/136 121/140/139 247/244/233
f 244/264/253 122/136/135 242/247/236
f 245/246/235 243/248/237 123/137/136
f 242/247/236 124/134/133 240/249/238
f 243/248/237 241/250/239 125/135/134
f 179/129/128 236/252/241 240/249/238
f 180/130/129 127/133/132 241/250/239
f 128/126/125 238/254/243 236/252/241
f 129/127/126 180/130/129 237/251/240
f 110/125/124 256/256/245 238/254/243
f 111/128/127 129/127/126 239/253/242
f 256/256/245 258/277/266 276/257/246
f 257/255/244 239/253/242 277/259/248
f 238/254/243 276/257/246 278/260/249
f 239/253/242 237/251/240 279/261/250
f 274/262/251 240/249/238 278/260/249
f 275/263/252 279/261/250 241/250/239
f 272/602/505 242/247/236 274/262/251
f 273/266/255 275/263/252 243/248/237
f 242/247/236 272/602/505 270/265/254
f 243/248/237 245/246/235 271/267/256
f 268/603/506 246/245/234 270/265/254
f 269/269/258 271/267/256 247/244/233
f 246/245/234 268/603/506 266/268/257
f 247/244/233 249/242/231 267/270/259
f 264/271/260 250/241/230 266/268/257
f 265/272/261 267/270/259 251/240/229
f 262/604/507 252/237/226 264/271/260
f 263/275/264 265/272/261 253/238/227
f 252/237/226 262/604/507 280/274/263
f 253/238/227 235/232/221 281/276/265
f 254/234/223 260/279/268 258/277/266
f 255/235/224 257/255/244 259/258/247
f 232/231/220 282/281/270 260/279/268
f 233/233/222 255/235/224 261/278/267
f 234/273/262 280/274/263 282/281/270
f 235/232/221 233/233/222 283/280/269
f 108/119/118 284/284/273 73/282/271
f 109/122/121 67/123/122 73/282/271
f 106/115/114 286/605/366 284/284/273
f 107/118/117 109/122/121 285/283/272
f 286/605/366 106/115/114 288/286/275
f 287/285/274 289/287/276 107/118/117
f 288/286/275 104/112/111 290/288/277
f 289/287/276 291/289/278 105/114/113
f 290/288/277 102/108/107 292/290/279
f 291/289/278 293/291/280 103/111/110
f 98/100/99 294/606/343 292/290/279
f 99/103/102 101/107/106 293/291/280
f 294/606/343 98/100/99 296/293/282
f 295/292/281 297/294/283 99/103/102
f 94/93/92 298/296/285 296/293/282
f 95/96/95 97/99/98 297/294/283
f 92/88/87 300/330/314 298/296/285
f 93/91/90 95/96/95 299/295/284
f 338/305/292 308/298/287 328/300/289
f 339/306/293 329/301/290 308/303/287
f 336/309/295 307/304/291 338/305/292
f 337/310/296 339/306/293 307/307/291
f 340/313/298 306/308/294 336/309/295
f 341/315/299 337/310/296 306/311/294
f 91/312/297 306/308/294 340/313/298
f 91/314/297 90/71/70 341/315/299
f 89/66/66 340/313/298 334/316/300
f 90/71/70 88/75/74 335/317/301
f 87/72/71 334/316/300 330/318/302
f 88/75/74 86/82/81 331/319/303
f 85/76/75 330/318/302 332/320/304
f 86/82/81 84/86/85 333/321/305
f 336/309/295 338/305/292 332/320/304
f 337/310/296 331/319/303 333/321/305
f 336/309/295 330/318/302 340/313/298
f 337/310/296 341/315/299 331/319/303
f 328/300/289 326/322/306 338/305/292
f 329/301/290 339/306/293 327/323/307
f 83/79/78 332/320/304 326/322/306
f 84/86/85 82/207/200 327/323/307
f 215/208/201 209/205/198 344/325/309
f 216/210/203 345/326/310 210/206/199
f 209/205/198 81/83/82 342/324/308
f 210/206/199 343/327/311 82/207/200
f 346/329/313 79/87/86 344/325/309
f 347/331/315 345/326/310 80/328/312
f 92/88/87 79/87/86 300/330/314
f 93/91/90 301/297/286 80/328/312
f 304/338/321 77/332/316 352/334/318
f 304/341/321 353/335/319 77/337/316
f 78/342/324 304/338/321 350/339/322
f 78/607/324 351/340/323 304/341/321
f 350/339/322 348/346/327 305/343/325
f 351/340/323 78/607/324 305/345/325
f 348/346/327 328/300/289 309/299/288
f 349/344/326 305/345/325 309/302/288
f 342/324/308 326/322/306 348/346/327
f 343/327/311 349/344/326 327/323/307
f 298/348/285 318/413/374 310/349/328
f 299/351/284 297/405/283 311/352/330
f 77/332/316 76/353/331 324/333/317
f 77/337/316 325/336/320 76/356/331
f 303/363/339 302/357/334 356/359/336
f 303/608/339 357/360/337 302/362/334
f 356/359/336 354/367/342 75/364/340
f 357/360/337 303/608/339 75/366/340
f 354/367/342 316/354/332 76/353/331
f 355/365/341 75/366/340 76/356/331
f 294/369/343 362/374/347 364/370/344
f 295/372/281 293/393/280 365/373/346
f 362/374/347 368/378/351 366/375/348
f 363/371/345 365/373/346 367/377/350
f 368/378/351 370/382/355 372/379/352
f 369/376/349 367/377/350 373/381/354
f 370/382/355 376/410/371 374/383/356
f 371/380/353 373/381/354 375/385/358
f 376/410/371 314/386/359 374/383/356
f 377/384/357 375/385/358 315/389/362
f 354/367/342 374/383/356 378/387/360
f 355/365/341 317/355/333 379/388/361
f 356/359/336 372/379/352 374/383/356
f 357/360/337 355/365/341 375/385/358
f 358/358/335 366/375/348 372/379/352
f 359/361/338 357/360/337 373/381/354
f 360/390/363 364/370/344 366/375/348
f 361/391/364 359/361/338 367/377/350
f 360/390/363 290/392/277 364/370/344
f 361/391/364 365/373/346 291/394/278
f 302/357/334 74/395/365 358/358/335
f 302/362/334 359/361/338 74/396/365
f 290/392/277 284/397/273 288/399/275
f 291/394/278 289/400/276 285/402/272
f 290/392/277 360/390/363 74/395/365
f 291/394/278 285/402/272 74/396/365
f 362/374/347 294/369/343 310/349/328
f 363/371/345 311/352/330 295/372/281
f 312/406/367 368/378/351 362/374/347
f 313/407/368 311/352/330 363/371/345
f 382/408/369 370/382/355 368/378/351
f 383/409/370 313/407/368 369/376/349
f 382/408/369 314/386/359 370/382/355
f 383/409/370 371/380/353 315/389/362
f 384/414/375 348/346/327 386/411/372
f 385/415/376 387/412/373 349/344/326
f 320/420/381 318/413/374 386/411/372
f 321/421/382 387/412/373 319/350/329
f 300/330/314 384/414/375 318/413/374
f 301/297/286 299/351/284 319/350/329
f 344/325/309 342/324/308 384/414/375
f 345/326/310 301/297/286 385/415/376
f 378/387/360 314/386/359 380/417/378
f 379/388/361 381/418/379 315/389/362
f 324/333/317 316/354/332 380/417/378
f 325/336/320 381/418/379 317/355/333
f 322/416/377 320/420/381 380/417/378
f 323/419/380 381/418/379 321/421/382
f 386/411/372 350/339/322 380/417/378
f 387/412/373 381/418/379 351/340/323
f 402/428/389 400/422/383 414/424/385
f 403/431/392 415/425/386 401/427/388
f 402/428/389 404/433/394 398/429/390
f 403/431/392 401/427/388 399/432/393
f 396/436/397 398/429/390 406/434/395
f 397/439/400 407/435/396 399/432/393
f 394/440/401 396/436/397 408/437/398
f 395/443/404 409/438/399 397/439/400
f 392/444/405 394/440/401 410/441/402
f 393/583/492 411/442/403 395/443/404
f 410/441/402 412/475/424 390/445/406
f 411/442/403 393/583/492 391/447/408
f 412/481/424 410/448/402 418/450/410
f 413/609/407 419/451/411 411/453/403
f 422/455/413 420/449/409 410/448/402
f 423/456/414 409/610/399 411/453/403
f 408/454/398 406/457/395 422/455/413
f 409/610/399 423/456/414 407/460/396
f 406/457/395 404/461/394 424/458/415
f 407/460/396 425/459/416 405/464/391
f 404/461/394 402/465/389 426/462/417
f 405/464/391 427/463/418 403/468/392
f 414/469/385 416/509/443 428/466/419
f 415/471/386 403/468/392 429/467/420
f 442/506/442 318/413/374 444/472/422
f 443/477/425 445/473/423 319/350/329
f 444/611/422 320/474/381 412/475/424
f 445/612/423 413/446/407 321/476/382
f 318/413/374 442/506/442 312/406/367
f 319/350/329 311/352/330 313/407/368
f 430/479/426 414/424/385 388/423/384
f 431/480/427 383/593/370 389/426/387
f 418/450/410 440/523/455 444/482/422
f 419/451/411 413/609/407 445/484/423
f 440/523/455 438/485/429 444/482/422
f 441/483/428 445/484/423 439/488/432
f 446/490/430 438/520/429 436/491/434
f 447/487/431 435/519/450 437/492/435
f 434/489/433 432/493/436 446/490/430
f 435/516/450 447/495/431 433/497/439
f 450/500/440 430/498/426 432/493/436
f 451/501/441 433/497/439 431/499/427
f 416/509/443 414/469/385 450/500/440
f 417/470/421 451/501/441 415/471/386
f 382/408/369 312/406/367 430/503/426
f 383/409/370 431/504/427 313/407/368
f 448/502/437 312/406/367 446/507/430
f 449/505/438 447/508/431 313/407/368
f 450/500/440 452/613/484 476/510/444
f 451/501/441 417/470/421 477/512/446
f 452/613/484 450/500/440 462/513/447
f 453/511/445 463/514/448 451/501/441
f 434/489/433 460/614/486 462/513/447
f 435/516/450 433/497/439 463/514/448
f 460/614/486 434/489/433 458/517/451
f 461/615/449 459/518/452 435/519/450
f 458/517/451 436/491/434 456/521/453
f 459/518/452 457/522/454 437/492/435
f 440/523/455 454/526/457 456/524/453
f 441/483/428 439/488/432 457/522/454
f 418/450/410 474/616/487 454/526/457
f 419/451/411 441/483/428 455/525/456
f 416/509/443 476/510/444 464/528/459
f 417/470/421 429/467/420 465/529/460
f 428/466/419 464/528/459 466/530/461
f 429/467/420 427/463/418 467/531/462
f 426/462/417 466/530/461 468/532/463
f 427/463/418 425/459/416 469/533/464
f 470/534/465 422/455/413 468/532/463
f 471/535/466 469/533/464 423/456/414
f 472/536/467 420/449/409 470/534/465
f 473/537/468 471/535/466 421/452/412
f 474/616/487 418/450/410 472/536/467
f 475/527/458 473/537/468 419/451/411
f 478/544/471 458/538/451 480/540/469
f 479/547/474 481/541/470 459/543/452
f 484/548/475 478/544/471 482/545/472
f 485/561/485 483/546/473 479/547/474
f 482/545/472 488/552/479 486/549/476
f 483/546/473 485/561/485 487/551/478
f 492/557/482 486/549/476 490/553/480
f 493/559/483 491/554/481 487/551/478
f 476/556/444 486/549/476 492/557/482
f 477/558/446 465/578/460 493/559/483
f 476/556/444 452/560/484 486/549/476
f 477/558/446 487/551/478 453/562/445
f 484/548/475 452/560/484 478/544/471
f 485/561/485 479/547/474 453/562/445
f 478/544/471 462/563/447 460/565/486
f 479/547/474 459/543/452 461/566/449
f 474/568/487 480/540/469 456/539/453
f 475/569/458 455/617/456 457/542/454
f 474/568/487 472/570/467 480/540/469
f 475/569/458 481/541/470 473/571/468
f 472/570/467 470/572/465 482/545/472
f 473/571/468 483/546/473 471/573/466
f 470/572/465 468/574/463 488/552/479
f 471/573/466 489/550/477 469/575/464
f 492/557/482 490/553/480 468/574/463
f 493/559/483 467/577/462 469/575/464
f 390/445/406 504/591/500 502/579/488
f 391/447/408 393/583/492 503/581/490
f 392/444/405 502/579/488 500/582/491
f 393/583/492 395/443/404 501/584/493
f 498/585/494 396/436/397 500/582/491
f 499/586/495 501/584/493 397/439/400
f 496/587/496 398/429/390 498/585/494
f 497/588/497 499/586/495 399/432/393
f 494/589/498 400/422/383 496/587/496
f 495/590/499 497/588/497 401/427/388
f 506/595/501 388/423/384 494/589/498
f 507/596/502 495/590/499 389/426/387
f 506/595/501 494/589/498 504/591/500
f 507/596/502 505/580/489 495/590/499
f 496/587/496 500/582/491 502/579/488
f 497/588/497 495/590/499 503/581/490
f 506/595/501 314/592/359 388/423/384
f 507/596/502 389/426/387 315/594/362
f 322/597/377 314/592/359 504/591/500
f 323/598/380 505/580/489 315/594/362
f 322/597/377 504/591/500 390/445/406
f 323/598/380 321/476/382 391/447/408
