# Blender v2.67 (sub 0) OBJ File: ''
# www.blender.org
o Plane_Plane.001
v 0.300000 -1.000000 0.620000
v -0.300000 -1.000000 0.620000
v 0.300000 -1.000000 0.380000
v -0.300000 -1.000000 0.380000
v 0.300000 -0.200000 -0.720000
v 0.300000 0.300000 -0.920000
v 0.300000 0.700000 -0.820000
v 0.300000 1.000000 -0.420000
v 0.300000 1.000000 -0.020000
v 0.300000 0.800000 0.680000
v 0.300000 0.600000 0.880000
v 0.300000 -0.200000 0.880000
v 0.300000 -0.800000 0.780000
v -0.300000 -0.200000 -0.720000
v -0.300000 0.300000 -0.920000
v -0.300000 0.700000 -0.820000
v -0.300000 1.000000 -0.420000
v -0.300000 1.000000 -0.020000
v -0.300000 0.800000 0.680000
v -0.300000 0.600000 0.880000
v -0.300000 -0.200000 0.880000
v -0.300000 -0.800000 0.780000
v -1.400000 0.500000 -0.220000
v 1.400000 0.500000 -0.220000
v 1.400000 0.500000 -0.520000
v -1.400000 0.500000 -0.520000
v 1.400000 0.100000 -0.220000
v 1.400000 0.100000 -0.520000
v -1.400000 0.100000 -0.220000
v -1.400000 0.100000 -0.520000
s off
f 2 1 3 4
f 9 8 17 18
f 11 10 19 20
f 6 5 14 15
f 13 12 21 22
f 8 7 16 17
f 10 9 18 19
f 12 11 20 21
f 7 6 15 16
f 13 1 2 22
f 5 3 4 14
f 29 2 22 23
f 23 22 21
f 24 8 9
f 24 9 10
f 24 10 11
f 24 12 13
f 25 24 27 28
f 27 1 3 28
f 1 27 24 13
f 28 6 7 25
f 28 5 6
f 28 3 5
f 23 26 30 29
f 30 4 2 29
f 15 30 26 16
f 14 30 15
f 4 30 14
f 17 23 18
f 18 23 19
f 19 23 20
f 25 7 8
f 16 26 17
f 17 26 23
f 20 23 21
f 24 11 12
f 25 8 24
